-target:library
-out:"Library/Bee/artifacts/2000b0aE.dag/EnoxSoftware.OpenCVForUnity.dll"
-refout:"Library/Bee/artifacts/2000b0aE.dag/EnoxSoftware.OpenCVForUnity.ref.dll"
-define:UNITY_2021_3_31
-define:UNITY_2021_3
-define:UNITY_2021
-define:UNITY_5_3_OR_NEWER
-define:UNITY_5_4_OR_NEWER
-define:UNITY_5_5_OR_NEWER
-define:UNITY_5_6_OR_NEWER
-define:UNITY_2017_1_OR_NEWER
-define:UNITY_2017_2_OR_NEWER
-define:UNITY_2017_3_OR_NEWER
-define:UNITY_2017_4_OR_NEWER
-define:UNITY_2018_1_OR_NEWER
-define:UNITY_2018_2_OR_NEWER
-define:UNITY_2018_3_OR_NEWER
-define:UNITY_2018_4_OR_NEWER
-define:UNITY_2019_1_OR_NEWER
-define:UNITY_2019_2_OR_NEWER
-define:UNITY_2019_3_OR_NEWER
-define:UNITY_2019_4_OR_NEWER
-define:UNITY_2020_1_OR_NEWER
-define:UNITY_2020_2_OR_NEWER
-define:UNITY_2020_3_OR_NEWER
-define:UNITY_2021_1_OR_NEWER
-define:UNITY_2021_2_OR_NEWER
-define:UNITY_2021_3_OR_NEWER
-define:UNITY_INCLUDE_TESTS
-define:ENABLE_AUDIO
-define:ENABLE_CACHING
-define:ENABLE_CLOTH
-define:ENABLE_MULTIPLE_DISPLAYS
-define:ENABLE_PHYSICS
-define:ENABLE_TEXTURE_STREAMING
-define:ENABLE_UNET
-define:ENABLE_UNITYEVENTS
-define:ENABLE_VR
-define:ENABLE_WEBCAM
-define:ENABLE_UNITYWEBREQUEST
-define:ENABLE_WWW
-define:ENABLE_CLOUD_SERVICES
-define:ENABLE_CLOUD_SERVICES_ADS
-define:ENABLE_CLOUD_SERVICES_USE_WEBREQUEST
-define:ENABLE_CLOUD_SERVICES_CRASH_REPORTING
-define:ENABLE_CLOUD_SERVICES_PURCHASING
-define:ENABLE_CLOUD_SERVICES_ANALYTICS
-define:ENABLE_CLOUD_SERVICES_UNET
-define:ENABLE_CLOUD_SERVICES_BUILD
-define:ENABLE_CLOUD_LICENSE
-define:ENABLE_EDITOR_HUB_LICENSE
-define:ENABLE_WEBSOCKET_CLIENT
-define:ENABLE_DIRECTOR_AUDIO
-define:ENABLE_DIRECTOR_TEXTURE
-define:ENABLE_MANAGED_JOBS
-define:ENABLE_MANAGED_TRANSFORM_JOBS
-define:ENABLE_MANAGED_ANIMATION_JOBS
-define:ENABLE_MANAGED_AUDIO_JOBS
-define:ENABLE_ENGINE_CODE_STRIPPING
-define:ENABLE_MANAGED_UNITYTLS
-define:RENDER_SOFTWARE_CURSOR
-define:ENABLE_VIDEO
-define:ENABLE_ACCELERATOR_CLIENT_DEBUGGING
-define:PLATFORM_WEBGL
-define:TEXTCORE_1_0_OR_NEWER
-define:UNITY_WEBGL
-define:UNITY_WEBGL_API
-define:UNITY_DISABLE_WEB_VERIFICATION
-define:UNITY_GFX_USE_PLATFORM_VSYNC
-define:ENABLE_CRUNCH_TEXTURE_COMPRESSION
-define:ENABLE_SPATIALTRACKING
-define:ENABLE_MONO
-define:NET_STANDARD_2_0
-define:NET_STANDARD
-define:NET_STANDARD_2_1
-define:NETSTANDARD
-define:NETSTANDARD2_1
-define:ENABLE_PROFILER
-define:DEBUG
-define:TRACE
-define:UNITY_ASSERTIONS
-define:UNITY_EDITOR
-define:UNITY_EDITOR_64
-define:UNITY_EDITOR_WIN
-define:ENABLE_UNITY_COLLECTIONS_CHECKS
-define:ENABLE_BURST_AOT
-define:UNITY_TEAM_LICENSE
-define:ENABLE_CUSTOM_RENDER_TEXTURE
-define:ENABLE_DIRECTOR
-define:ENABLE_LOCALIZATION
-define:ENABLE_SPRITES
-define:ENABLE_TERRAIN
-define:ENABLE_TILEMAP
-define:ENABLE_TIMELINE
-define:ENABLE_LEGACY_INPUT_MANAGER
-define:TEXTCORE_FONT_ENGINE_1_5_OR_NEWER
-define:CSHARP_7_OR_LATER
-define:CSHARP_7_3_OR_NEWER
-r:"Assets/JsonDotNet/Assemblies/Standalone/Newtonsoft.Json.dll"
-r:"C:/Program Files/Unity/Hub/Editor/2021.3.31f1/Editor/Data/Managed/UnityEditor.Graphs.dll"
-r:"C:/Program Files/Unity/Hub/Editor/2021.3.31f1/Editor/Data/Managed/UnityEngine/UnityEditor.CoreModule.dll"
-r:"C:/Program Files/Unity/Hub/Editor/2021.3.31f1/Editor/Data/Managed/UnityEngine/UnityEditor.DeviceSimulatorModule.dll"
-r:"C:/Program Files/Unity/Hub/Editor/2021.3.31f1/Editor/Data/Managed/UnityEngine/UnityEditor.DiagnosticsModule.dll"
-r:"C:/Program Files/Unity/Hub/Editor/2021.3.31f1/Editor/Data/Managed/UnityEngine/UnityEditor.dll"
-r:"C:/Program Files/Unity/Hub/Editor/2021.3.31f1/Editor/Data/Managed/UnityEngine/UnityEditor.GraphViewModule.dll"
-r:"C:/Program Files/Unity/Hub/Editor/2021.3.31f1/Editor/Data/Managed/UnityEngine/UnityEditor.PackageManagerUIModule.dll"
-r:"C:/Program Files/Unity/Hub/Editor/2021.3.31f1/Editor/Data/Managed/UnityEngine/UnityEditor.QuickSearchModule.dll"
-r:"C:/Program Files/Unity/Hub/Editor/2021.3.31f1/Editor/Data/Managed/UnityEngine/UnityEditor.SceneTemplateModule.dll"
-r:"C:/Program Files/Unity/Hub/Editor/2021.3.31f1/Editor/Data/Managed/UnityEngine/UnityEditor.TextCoreFontEngineModule.dll"
-r:"C:/Program Files/Unity/Hub/Editor/2021.3.31f1/Editor/Data/Managed/UnityEngine/UnityEditor.TextCoreTextEngineModule.dll"
-r:"C:/Program Files/Unity/Hub/Editor/2021.3.31f1/Editor/Data/Managed/UnityEngine/UnityEditor.UIBuilderModule.dll"
-r:"C:/Program Files/Unity/Hub/Editor/2021.3.31f1/Editor/Data/Managed/UnityEngine/UnityEditor.UIElementsModule.dll"
-r:"C:/Program Files/Unity/Hub/Editor/2021.3.31f1/Editor/Data/Managed/UnityEngine/UnityEditor.UIElementsSamplesModule.dll"
-r:"C:/Program Files/Unity/Hub/Editor/2021.3.31f1/Editor/Data/Managed/UnityEngine/UnityEditor.UIServiceModule.dll"
-r:"C:/Program Files/Unity/Hub/Editor/2021.3.31f1/Editor/Data/Managed/UnityEngine/UnityEditor.UnityConnectModule.dll"
-r:"C:/Program Files/Unity/Hub/Editor/2021.3.31f1/Editor/Data/Managed/UnityEngine/UnityEngine.AccessibilityModule.dll"
-r:"C:/Program Files/Unity/Hub/Editor/2021.3.31f1/Editor/Data/Managed/UnityEngine/UnityEngine.AIModule.dll"
-r:"C:/Program Files/Unity/Hub/Editor/2021.3.31f1/Editor/Data/Managed/UnityEngine/UnityEngine.AndroidJNIModule.dll"
-r:"C:/Program Files/Unity/Hub/Editor/2021.3.31f1/Editor/Data/Managed/UnityEngine/UnityEngine.AnimationModule.dll"
-r:"C:/Program Files/Unity/Hub/Editor/2021.3.31f1/Editor/Data/Managed/UnityEngine/UnityEngine.AssetBundleModule.dll"
-r:"C:/Program Files/Unity/Hub/Editor/2021.3.31f1/Editor/Data/Managed/UnityEngine/UnityEngine.AudioModule.dll"
-r:"C:/Program Files/Unity/Hub/Editor/2021.3.31f1/Editor/Data/Managed/UnityEngine/UnityEngine.ClothModule.dll"
-r:"C:/Program Files/Unity/Hub/Editor/2021.3.31f1/Editor/Data/Managed/UnityEngine/UnityEngine.CoreModule.dll"
-r:"C:/Program Files/Unity/Hub/Editor/2021.3.31f1/Editor/Data/Managed/UnityEngine/UnityEngine.CrashReportingModule.dll"
-r:"C:/Program Files/Unity/Hub/Editor/2021.3.31f1/Editor/Data/Managed/UnityEngine/UnityEngine.DirectorModule.dll"
-r:"C:/Program Files/Unity/Hub/Editor/2021.3.31f1/Editor/Data/Managed/UnityEngine/UnityEngine.dll"
-r:"C:/Program Files/Unity/Hub/Editor/2021.3.31f1/Editor/Data/Managed/UnityEngine/UnityEngine.DSPGraphModule.dll"
-r:"C:/Program Files/Unity/Hub/Editor/2021.3.31f1/Editor/Data/Managed/UnityEngine/UnityEngine.GameCenterModule.dll"
-r:"C:/Program Files/Unity/Hub/Editor/2021.3.31f1/Editor/Data/Managed/UnityEngine/UnityEngine.GIModule.dll"
-r:"C:/Program Files/Unity/Hub/Editor/2021.3.31f1/Editor/Data/Managed/UnityEngine/UnityEngine.GridModule.dll"
-r:"C:/Program Files/Unity/Hub/Editor/2021.3.31f1/Editor/Data/Managed/UnityEngine/UnityEngine.HotReloadModule.dll"
-r:"C:/Program Files/Unity/Hub/Editor/2021.3.31f1/Editor/Data/Managed/UnityEngine/UnityEngine.ImageConversionModule.dll"
-r:"C:/Program Files/Unity/Hub/Editor/2021.3.31f1/Editor/Data/Managed/UnityEngine/UnityEngine.IMGUIModule.dll"
-r:"C:/Program Files/Unity/Hub/Editor/2021.3.31f1/Editor/Data/Managed/UnityEngine/UnityEngine.InputLegacyModule.dll"
-r:"C:/Program Files/Unity/Hub/Editor/2021.3.31f1/Editor/Data/Managed/UnityEngine/UnityEngine.InputModule.dll"
-r:"C:/Program Files/Unity/Hub/Editor/2021.3.31f1/Editor/Data/Managed/UnityEngine/UnityEngine.JSONSerializeModule.dll"
-r:"C:/Program Files/Unity/Hub/Editor/2021.3.31f1/Editor/Data/Managed/UnityEngine/UnityEngine.LocalizationModule.dll"
-r:"C:/Program Files/Unity/Hub/Editor/2021.3.31f1/Editor/Data/Managed/UnityEngine/UnityEngine.ParticleSystemModule.dll"
-r:"C:/Program Files/Unity/Hub/Editor/2021.3.31f1/Editor/Data/Managed/UnityEngine/UnityEngine.PerformanceReportingModule.dll"
-r:"C:/Program Files/Unity/Hub/Editor/2021.3.31f1/Editor/Data/Managed/UnityEngine/UnityEngine.Physics2DModule.dll"
-r:"C:/Program Files/Unity/Hub/Editor/2021.3.31f1/Editor/Data/Managed/UnityEngine/UnityEngine.PhysicsModule.dll"
-r:"C:/Program Files/Unity/Hub/Editor/2021.3.31f1/Editor/Data/Managed/UnityEngine/UnityEngine.ProfilerModule.dll"
-r:"C:/Program Files/Unity/Hub/Editor/2021.3.31f1/Editor/Data/Managed/UnityEngine/UnityEngine.RuntimeInitializeOnLoadManagerInitializerModule.dll"
-r:"C:/Program Files/Unity/Hub/Editor/2021.3.31f1/Editor/Data/Managed/UnityEngine/UnityEngine.ScreenCaptureModule.dll"
-r:"C:/Program Files/Unity/Hub/Editor/2021.3.31f1/Editor/Data/Managed/UnityEngine/UnityEngine.SharedInternalsModule.dll"
-r:"C:/Program Files/Unity/Hub/Editor/2021.3.31f1/Editor/Data/Managed/UnityEngine/UnityEngine.SpriteMaskModule.dll"
-r:"C:/Program Files/Unity/Hub/Editor/2021.3.31f1/Editor/Data/Managed/UnityEngine/UnityEngine.SpriteShapeModule.dll"
-r:"C:/Program Files/Unity/Hub/Editor/2021.3.31f1/Editor/Data/Managed/UnityEngine/UnityEngine.StreamingModule.dll"
-r:"C:/Program Files/Unity/Hub/Editor/2021.3.31f1/Editor/Data/Managed/UnityEngine/UnityEngine.SubstanceModule.dll"
-r:"C:/Program Files/Unity/Hub/Editor/2021.3.31f1/Editor/Data/Managed/UnityEngine/UnityEngine.SubsystemsModule.dll"
-r:"C:/Program Files/Unity/Hub/Editor/2021.3.31f1/Editor/Data/Managed/UnityEngine/UnityEngine.TerrainModule.dll"
-r:"C:/Program Files/Unity/Hub/Editor/2021.3.31f1/Editor/Data/Managed/UnityEngine/UnityEngine.TerrainPhysicsModule.dll"
-r:"C:/Program Files/Unity/Hub/Editor/2021.3.31f1/Editor/Data/Managed/UnityEngine/UnityEngine.TextCoreFontEngineModule.dll"
-r:"C:/Program Files/Unity/Hub/Editor/2021.3.31f1/Editor/Data/Managed/UnityEngine/UnityEngine.TextCoreTextEngineModule.dll"
-r:"C:/Program Files/Unity/Hub/Editor/2021.3.31f1/Editor/Data/Managed/UnityEngine/UnityEngine.TextRenderingModule.dll"
-r:"C:/Program Files/Unity/Hub/Editor/2021.3.31f1/Editor/Data/Managed/UnityEngine/UnityEngine.TilemapModule.dll"
-r:"C:/Program Files/Unity/Hub/Editor/2021.3.31f1/Editor/Data/Managed/UnityEngine/UnityEngine.TLSModule.dll"
-r:"C:/Program Files/Unity/Hub/Editor/2021.3.31f1/Editor/Data/Managed/UnityEngine/UnityEngine.UIElementsModule.dll"
-r:"C:/Program Files/Unity/Hub/Editor/2021.3.31f1/Editor/Data/Managed/UnityEngine/UnityEngine.UIElementsNativeModule.dll"
-r:"C:/Program Files/Unity/Hub/Editor/2021.3.31f1/Editor/Data/Managed/UnityEngine/UnityEngine.UIModule.dll"
-r:"C:/Program Files/Unity/Hub/Editor/2021.3.31f1/Editor/Data/Managed/UnityEngine/UnityEngine.UmbraModule.dll"
-r:"C:/Program Files/Unity/Hub/Editor/2021.3.31f1/Editor/Data/Managed/UnityEngine/UnityEngine.UNETModule.dll"
-r:"C:/Program Files/Unity/Hub/Editor/2021.3.31f1/Editor/Data/Managed/UnityEngine/UnityEngine.UnityAnalyticsCommonModule.dll"
-r:"C:/Program Files/Unity/Hub/Editor/2021.3.31f1/Editor/Data/Managed/UnityEngine/UnityEngine.UnityAnalyticsModule.dll"
-r:"C:/Program Files/Unity/Hub/Editor/2021.3.31f1/Editor/Data/Managed/UnityEngine/UnityEngine.UnityConnectModule.dll"
-r:"C:/Program Files/Unity/Hub/Editor/2021.3.31f1/Editor/Data/Managed/UnityEngine/UnityEngine.UnityCurlModule.dll"
-r:"C:/Program Files/Unity/Hub/Editor/2021.3.31f1/Editor/Data/Managed/UnityEngine/UnityEngine.UnityTestProtocolModule.dll"
-r:"C:/Program Files/Unity/Hub/Editor/2021.3.31f1/Editor/Data/Managed/UnityEngine/UnityEngine.UnityWebRequestAssetBundleModule.dll"
-r:"C:/Program Files/Unity/Hub/Editor/2021.3.31f1/Editor/Data/Managed/UnityEngine/UnityEngine.UnityWebRequestAudioModule.dll"
-r:"C:/Program Files/Unity/Hub/Editor/2021.3.31f1/Editor/Data/Managed/UnityEngine/UnityEngine.UnityWebRequestModule.dll"
-r:"C:/Program Files/Unity/Hub/Editor/2021.3.31f1/Editor/Data/Managed/UnityEngine/UnityEngine.UnityWebRequestTextureModule.dll"
-r:"C:/Program Files/Unity/Hub/Editor/2021.3.31f1/Editor/Data/Managed/UnityEngine/UnityEngine.UnityWebRequestWWWModule.dll"
-r:"C:/Program Files/Unity/Hub/Editor/2021.3.31f1/Editor/Data/Managed/UnityEngine/UnityEngine.VehiclesModule.dll"
-r:"C:/Program Files/Unity/Hub/Editor/2021.3.31f1/Editor/Data/Managed/UnityEngine/UnityEngine.VFXModule.dll"
-r:"C:/Program Files/Unity/Hub/Editor/2021.3.31f1/Editor/Data/Managed/UnityEngine/UnityEngine.VideoModule.dll"
-r:"C:/Program Files/Unity/Hub/Editor/2021.3.31f1/Editor/Data/Managed/UnityEngine/UnityEngine.VRModule.dll"
-r:"C:/Program Files/Unity/Hub/Editor/2021.3.31f1/Editor/Data/Managed/UnityEngine/UnityEngine.WindModule.dll"
-r:"C:/Program Files/Unity/Hub/Editor/2021.3.31f1/Editor/Data/Managed/UnityEngine/UnityEngine.XRModule.dll"
-r:"C:/Program Files/Unity/Hub/Editor/2021.3.31f1/Editor/Data/NetStandard/compat/2.1.0/shims/netfx/mscorlib.dll"
-r:"C:/Program Files/Unity/Hub/Editor/2021.3.31f1/Editor/Data/NetStandard/compat/2.1.0/shims/netfx/System.ComponentModel.Composition.dll"
-r:"C:/Program Files/Unity/Hub/Editor/2021.3.31f1/Editor/Data/NetStandard/compat/2.1.0/shims/netfx/System.Core.dll"
-r:"C:/Program Files/Unity/Hub/Editor/2021.3.31f1/Editor/Data/NetStandard/compat/2.1.0/shims/netfx/System.Data.dll"
-r:"C:/Program Files/Unity/Hub/Editor/2021.3.31f1/Editor/Data/NetStandard/compat/2.1.0/shims/netfx/System.dll"
-r:"C:/Program Files/Unity/Hub/Editor/2021.3.31f1/Editor/Data/NetStandard/compat/2.1.0/shims/netfx/System.Drawing.dll"
-r:"C:/Program Files/Unity/Hub/Editor/2021.3.31f1/Editor/Data/NetStandard/compat/2.1.0/shims/netfx/System.IO.Compression.FileSystem.dll"
-r:"C:/Program Files/Unity/Hub/Editor/2021.3.31f1/Editor/Data/NetStandard/compat/2.1.0/shims/netfx/System.Net.dll"
-r:"C:/Program Files/Unity/Hub/Editor/2021.3.31f1/Editor/Data/NetStandard/compat/2.1.0/shims/netfx/System.Numerics.dll"
-r:"C:/Program Files/Unity/Hub/Editor/2021.3.31f1/Editor/Data/NetStandard/compat/2.1.0/shims/netfx/System.Runtime.Serialization.dll"
-r:"C:/Program Files/Unity/Hub/Editor/2021.3.31f1/Editor/Data/NetStandard/compat/2.1.0/shims/netfx/System.ServiceModel.Web.dll"
-r:"C:/Program Files/Unity/Hub/Editor/2021.3.31f1/Editor/Data/NetStandard/compat/2.1.0/shims/netfx/System.Transactions.dll"
-r:"C:/Program Files/Unity/Hub/Editor/2021.3.31f1/Editor/Data/NetStandard/compat/2.1.0/shims/netfx/System.Web.dll"
-r:"C:/Program Files/Unity/Hub/Editor/2021.3.31f1/Editor/Data/NetStandard/compat/2.1.0/shims/netfx/System.Windows.dll"
-r:"C:/Program Files/Unity/Hub/Editor/2021.3.31f1/Editor/Data/NetStandard/compat/2.1.0/shims/netfx/System.Xml.dll"
-r:"C:/Program Files/Unity/Hub/Editor/2021.3.31f1/Editor/Data/NetStandard/compat/2.1.0/shims/netfx/System.Xml.Linq.dll"
-r:"C:/Program Files/Unity/Hub/Editor/2021.3.31f1/Editor/Data/NetStandard/compat/2.1.0/shims/netfx/System.Xml.Serialization.dll"
-r:"C:/Program Files/Unity/Hub/Editor/2021.3.31f1/Editor/Data/NetStandard/compat/2.1.0/shims/netstandard/Microsoft.Win32.Primitives.dll"
-r:"C:/Program Files/Unity/Hub/Editor/2021.3.31f1/Editor/Data/NetStandard/compat/2.1.0/shims/netstandard/System.AppContext.dll"
-r:"C:/Program Files/Unity/Hub/Editor/2021.3.31f1/Editor/Data/NetStandard/compat/2.1.0/shims/netstandard/System.Buffers.dll"
-r:"C:/Program Files/Unity/Hub/Editor/2021.3.31f1/Editor/Data/NetStandard/compat/2.1.0/shims/netstandard/System.Collections.Concurrent.dll"
-r:"C:/Program Files/Unity/Hub/Editor/2021.3.31f1/Editor/Data/NetStandard/compat/2.1.0/shims/netstandard/System.Collections.dll"
-r:"C:/Program Files/Unity/Hub/Editor/2021.3.31f1/Editor/Data/NetStandard/compat/2.1.0/shims/netstandard/System.Collections.NonGeneric.dll"
-r:"C:/Program Files/Unity/Hub/Editor/2021.3.31f1/Editor/Data/NetStandard/compat/2.1.0/shims/netstandard/System.Collections.Specialized.dll"
-r:"C:/Program Files/Unity/Hub/Editor/2021.3.31f1/Editor/Data/NetStandard/compat/2.1.0/shims/netstandard/System.ComponentModel.dll"
-r:"C:/Program Files/Unity/Hub/Editor/2021.3.31f1/Editor/Data/NetStandard/compat/2.1.0/shims/netstandard/System.ComponentModel.EventBasedAsync.dll"
-r:"C:/Program Files/Unity/Hub/Editor/2021.3.31f1/Editor/Data/NetStandard/compat/2.1.0/shims/netstandard/System.ComponentModel.Primitives.dll"
-r:"C:/Program Files/Unity/Hub/Editor/2021.3.31f1/Editor/Data/NetStandard/compat/2.1.0/shims/netstandard/System.ComponentModel.TypeConverter.dll"
-r:"C:/Program Files/Unity/Hub/Editor/2021.3.31f1/Editor/Data/NetStandard/compat/2.1.0/shims/netstandard/System.Console.dll"
-r:"C:/Program Files/Unity/Hub/Editor/2021.3.31f1/Editor/Data/NetStandard/compat/2.1.0/shims/netstandard/System.Data.Common.dll"
-r:"C:/Program Files/Unity/Hub/Editor/2021.3.31f1/Editor/Data/NetStandard/compat/2.1.0/shims/netstandard/System.Diagnostics.Contracts.dll"
-r:"C:/Program Files/Unity/Hub/Editor/2021.3.31f1/Editor/Data/NetStandard/compat/2.1.0/shims/netstandard/System.Diagnostics.Debug.dll"
-r:"C:/Program Files/Unity/Hub/Editor/2021.3.31f1/Editor/Data/NetStandard/compat/2.1.0/shims/netstandard/System.Diagnostics.FileVersionInfo.dll"
-r:"C:/Program Files/Unity/Hub/Editor/2021.3.31f1/Editor/Data/NetStandard/compat/2.1.0/shims/netstandard/System.Diagnostics.Process.dll"
-r:"C:/Program Files/Unity/Hub/Editor/2021.3.31f1/Editor/Data/NetStandard/compat/2.1.0/shims/netstandard/System.Diagnostics.StackTrace.dll"
-r:"C:/Program Files/Unity/Hub/Editor/2021.3.31f1/Editor/Data/NetStandard/compat/2.1.0/shims/netstandard/System.Diagnostics.TextWriterTraceListener.dll"
-r:"C:/Program Files/Unity/Hub/Editor/2021.3.31f1/Editor/Data/NetStandard/compat/2.1.0/shims/netstandard/System.Diagnostics.Tools.dll"
-r:"C:/Program Files/Unity/Hub/Editor/2021.3.31f1/Editor/Data/NetStandard/compat/2.1.0/shims/netstandard/System.Diagnostics.TraceSource.dll"
-r:"C:/Program Files/Unity/Hub/Editor/2021.3.31f1/Editor/Data/NetStandard/compat/2.1.0/shims/netstandard/System.Diagnostics.Tracing.dll"
-r:"C:/Program Files/Unity/Hub/Editor/2021.3.31f1/Editor/Data/NetStandard/compat/2.1.0/shims/netstandard/System.Drawing.Primitives.dll"
-r:"C:/Program Files/Unity/Hub/Editor/2021.3.31f1/Editor/Data/NetStandard/compat/2.1.0/shims/netstandard/System.Dynamic.Runtime.dll"
-r:"C:/Program Files/Unity/Hub/Editor/2021.3.31f1/Editor/Data/NetStandard/compat/2.1.0/shims/netstandard/System.Globalization.Calendars.dll"
-r:"C:/Program Files/Unity/Hub/Editor/2021.3.31f1/Editor/Data/NetStandard/compat/2.1.0/shims/netstandard/System.Globalization.dll"
-r:"C:/Program Files/Unity/Hub/Editor/2021.3.31f1/Editor/Data/NetStandard/compat/2.1.0/shims/netstandard/System.Globalization.Extensions.dll"
-r:"C:/Program Files/Unity/Hub/Editor/2021.3.31f1/Editor/Data/NetStandard/compat/2.1.0/shims/netstandard/System.IO.Compression.dll"
-r:"C:/Program Files/Unity/Hub/Editor/2021.3.31f1/Editor/Data/NetStandard/compat/2.1.0/shims/netstandard/System.IO.Compression.ZipFile.dll"
-r:"C:/Program Files/Unity/Hub/Editor/2021.3.31f1/Editor/Data/NetStandard/compat/2.1.0/shims/netstandard/System.IO.dll"
-r:"C:/Program Files/Unity/Hub/Editor/2021.3.31f1/Editor/Data/NetStandard/compat/2.1.0/shims/netstandard/System.IO.FileSystem.dll"
-r:"C:/Program Files/Unity/Hub/Editor/2021.3.31f1/Editor/Data/NetStandard/compat/2.1.0/shims/netstandard/System.IO.FileSystem.DriveInfo.dll"
-r:"C:/Program Files/Unity/Hub/Editor/2021.3.31f1/Editor/Data/NetStandard/compat/2.1.0/shims/netstandard/System.IO.FileSystem.Primitives.dll"
-r:"C:/Program Files/Unity/Hub/Editor/2021.3.31f1/Editor/Data/NetStandard/compat/2.1.0/shims/netstandard/System.IO.FileSystem.Watcher.dll"
-r:"C:/Program Files/Unity/Hub/Editor/2021.3.31f1/Editor/Data/NetStandard/compat/2.1.0/shims/netstandard/System.IO.IsolatedStorage.dll"
-r:"C:/Program Files/Unity/Hub/Editor/2021.3.31f1/Editor/Data/NetStandard/compat/2.1.0/shims/netstandard/System.IO.MemoryMappedFiles.dll"
-r:"C:/Program Files/Unity/Hub/Editor/2021.3.31f1/Editor/Data/NetStandard/compat/2.1.0/shims/netstandard/System.IO.Pipes.dll"
-r:"C:/Program Files/Unity/Hub/Editor/2021.3.31f1/Editor/Data/NetStandard/compat/2.1.0/shims/netstandard/System.IO.UnmanagedMemoryStream.dll"
-r:"C:/Program Files/Unity/Hub/Editor/2021.3.31f1/Editor/Data/NetStandard/compat/2.1.0/shims/netstandard/System.Linq.dll"
-r:"C:/Program Files/Unity/Hub/Editor/2021.3.31f1/Editor/Data/NetStandard/compat/2.1.0/shims/netstandard/System.Linq.Expressions.dll"
-r:"C:/Program Files/Unity/Hub/Editor/2021.3.31f1/Editor/Data/NetStandard/compat/2.1.0/shims/netstandard/System.Linq.Parallel.dll"
-r:"C:/Program Files/Unity/Hub/Editor/2021.3.31f1/Editor/Data/NetStandard/compat/2.1.0/shims/netstandard/System.Linq.Queryable.dll"
-r:"C:/Program Files/Unity/Hub/Editor/2021.3.31f1/Editor/Data/NetStandard/compat/2.1.0/shims/netstandard/System.Memory.dll"
-r:"C:/Program Files/Unity/Hub/Editor/2021.3.31f1/Editor/Data/NetStandard/compat/2.1.0/shims/netstandard/System.Net.Http.dll"
-r:"C:/Program Files/Unity/Hub/Editor/2021.3.31f1/Editor/Data/NetStandard/compat/2.1.0/shims/netstandard/System.Net.NameResolution.dll"
-r:"C:/Program Files/Unity/Hub/Editor/2021.3.31f1/Editor/Data/NetStandard/compat/2.1.0/shims/netstandard/System.Net.NetworkInformation.dll"
-r:"C:/Program Files/Unity/Hub/Editor/2021.3.31f1/Editor/Data/NetStandard/compat/2.1.0/shims/netstandard/System.Net.Ping.dll"
-r:"C:/Program Files/Unity/Hub/Editor/2021.3.31f1/Editor/Data/NetStandard/compat/2.1.0/shims/netstandard/System.Net.Primitives.dll"
-r:"C:/Program Files/Unity/Hub/Editor/2021.3.31f1/Editor/Data/NetStandard/compat/2.1.0/shims/netstandard/System.Net.Requests.dll"
-r:"C:/Program Files/Unity/Hub/Editor/2021.3.31f1/Editor/Data/NetStandard/compat/2.1.0/shims/netstandard/System.Net.Security.dll"
-r:"C:/Program Files/Unity/Hub/Editor/2021.3.31f1/Editor/Data/NetStandard/compat/2.1.0/shims/netstandard/System.Net.Sockets.dll"
-r:"C:/Program Files/Unity/Hub/Editor/2021.3.31f1/Editor/Data/NetStandard/compat/2.1.0/shims/netstandard/System.Net.WebHeaderCollection.dll"
-r:"C:/Program Files/Unity/Hub/Editor/2021.3.31f1/Editor/Data/NetStandard/compat/2.1.0/shims/netstandard/System.Net.WebSockets.Client.dll"
-r:"C:/Program Files/Unity/Hub/Editor/2021.3.31f1/Editor/Data/NetStandard/compat/2.1.0/shims/netstandard/System.Net.WebSockets.dll"
-r:"C:/Program Files/Unity/Hub/Editor/2021.3.31f1/Editor/Data/NetStandard/compat/2.1.0/shims/netstandard/System.Numerics.Vectors.dll"
-r:"C:/Program Files/Unity/Hub/Editor/2021.3.31f1/Editor/Data/NetStandard/compat/2.1.0/shims/netstandard/System.ObjectModel.dll"
-r:"C:/Program Files/Unity/Hub/Editor/2021.3.31f1/Editor/Data/NetStandard/compat/2.1.0/shims/netstandard/System.Reflection.DispatchProxy.dll"
-r:"C:/Program Files/Unity/Hub/Editor/2021.3.31f1/Editor/Data/NetStandard/compat/2.1.0/shims/netstandard/System.Reflection.dll"
-r:"C:/Program Files/Unity/Hub/Editor/2021.3.31f1/Editor/Data/NetStandard/compat/2.1.0/shims/netstandard/System.Reflection.Emit.dll"
-r:"C:/Program Files/Unity/Hub/Editor/2021.3.31f1/Editor/Data/NetStandard/compat/2.1.0/shims/netstandard/System.Reflection.Emit.ILGeneration.dll"
-r:"C:/Program Files/Unity/Hub/Editor/2021.3.31f1/Editor/Data/NetStandard/compat/2.1.0/shims/netstandard/System.Reflection.Emit.Lightweight.dll"
-r:"C:/Program Files/Unity/Hub/Editor/2021.3.31f1/Editor/Data/NetStandard/compat/2.1.0/shims/netstandard/System.Reflection.Extensions.dll"
-r:"C:/Program Files/Unity/Hub/Editor/2021.3.31f1/Editor/Data/NetStandard/compat/2.1.0/shims/netstandard/System.Reflection.Primitives.dll"
-r:"C:/Program Files/Unity/Hub/Editor/2021.3.31f1/Editor/Data/NetStandard/compat/2.1.0/shims/netstandard/System.Resources.Reader.dll"
-r:"C:/Program Files/Unity/Hub/Editor/2021.3.31f1/Editor/Data/NetStandard/compat/2.1.0/shims/netstandard/System.Resources.ResourceManager.dll"
-r:"C:/Program Files/Unity/Hub/Editor/2021.3.31f1/Editor/Data/NetStandard/compat/2.1.0/shims/netstandard/System.Resources.Writer.dll"
-r:"C:/Program Files/Unity/Hub/Editor/2021.3.31f1/Editor/Data/NetStandard/compat/2.1.0/shims/netstandard/System.Runtime.CompilerServices.VisualC.dll"
-r:"C:/Program Files/Unity/Hub/Editor/2021.3.31f1/Editor/Data/NetStandard/compat/2.1.0/shims/netstandard/System.Runtime.dll"
-r:"C:/Program Files/Unity/Hub/Editor/2021.3.31f1/Editor/Data/NetStandard/compat/2.1.0/shims/netstandard/System.Runtime.Extensions.dll"
-r:"C:/Program Files/Unity/Hub/Editor/2021.3.31f1/Editor/Data/NetStandard/compat/2.1.0/shims/netstandard/System.Runtime.Handles.dll"
-r:"C:/Program Files/Unity/Hub/Editor/2021.3.31f1/Editor/Data/NetStandard/compat/2.1.0/shims/netstandard/System.Runtime.InteropServices.dll"
-r:"C:/Program Files/Unity/Hub/Editor/2021.3.31f1/Editor/Data/NetStandard/compat/2.1.0/shims/netstandard/System.Runtime.InteropServices.RuntimeInformation.dll"
-r:"C:/Program Files/Unity/Hub/Editor/2021.3.31f1/Editor/Data/NetStandard/compat/2.1.0/shims/netstandard/System.Runtime.Numerics.dll"
-r:"C:/Program Files/Unity/Hub/Editor/2021.3.31f1/Editor/Data/NetStandard/compat/2.1.0/shims/netstandard/System.Runtime.Serialization.Formatters.dll"
-r:"C:/Program Files/Unity/Hub/Editor/2021.3.31f1/Editor/Data/NetStandard/compat/2.1.0/shims/netstandard/System.Runtime.Serialization.Json.dll"
-r:"C:/Program Files/Unity/Hub/Editor/2021.3.31f1/Editor/Data/NetStandard/compat/2.1.0/shims/netstandard/System.Runtime.Serialization.Primitives.dll"
-r:"C:/Program Files/Unity/Hub/Editor/2021.3.31f1/Editor/Data/NetStandard/compat/2.1.0/shims/netstandard/System.Runtime.Serialization.Xml.dll"
-r:"C:/Program Files/Unity/Hub/Editor/2021.3.31f1/Editor/Data/NetStandard/compat/2.1.0/shims/netstandard/System.Security.Claims.dll"
-r:"C:/Program Files/Unity/Hub/Editor/2021.3.31f1/Editor/Data/NetStandard/compat/2.1.0/shims/netstandard/System.Security.Cryptography.Algorithms.dll"
-r:"C:/Program Files/Unity/Hub/Editor/2021.3.31f1/Editor/Data/NetStandard/compat/2.1.0/shims/netstandard/System.Security.Cryptography.Csp.dll"
-r:"C:/Program Files/Unity/Hub/Editor/2021.3.31f1/Editor/Data/NetStandard/compat/2.1.0/shims/netstandard/System.Security.Cryptography.Encoding.dll"
-r:"C:/Program Files/Unity/Hub/Editor/2021.3.31f1/Editor/Data/NetStandard/compat/2.1.0/shims/netstandard/System.Security.Cryptography.Primitives.dll"
-r:"C:/Program Files/Unity/Hub/Editor/2021.3.31f1/Editor/Data/NetStandard/compat/2.1.0/shims/netstandard/System.Security.Cryptography.X509Certificates.dll"
-r:"C:/Program Files/Unity/Hub/Editor/2021.3.31f1/Editor/Data/NetStandard/compat/2.1.0/shims/netstandard/System.Security.Principal.dll"
-r:"C:/Program Files/Unity/Hub/Editor/2021.3.31f1/Editor/Data/NetStandard/compat/2.1.0/shims/netstandard/System.Security.SecureString.dll"
-r:"C:/Program Files/Unity/Hub/Editor/2021.3.31f1/Editor/Data/NetStandard/compat/2.1.0/shims/netstandard/System.Text.Encoding.dll"
-r:"C:/Program Files/Unity/Hub/Editor/2021.3.31f1/Editor/Data/NetStandard/compat/2.1.0/shims/netstandard/System.Text.Encoding.Extensions.dll"
-r:"C:/Program Files/Unity/Hub/Editor/2021.3.31f1/Editor/Data/NetStandard/compat/2.1.0/shims/netstandard/System.Text.RegularExpressions.dll"
-r:"C:/Program Files/Unity/Hub/Editor/2021.3.31f1/Editor/Data/NetStandard/compat/2.1.0/shims/netstandard/System.Threading.dll"
-r:"C:/Program Files/Unity/Hub/Editor/2021.3.31f1/Editor/Data/NetStandard/compat/2.1.0/shims/netstandard/System.Threading.Overlapped.dll"
-r:"C:/Program Files/Unity/Hub/Editor/2021.3.31f1/Editor/Data/NetStandard/compat/2.1.0/shims/netstandard/System.Threading.Tasks.dll"
-r:"C:/Program Files/Unity/Hub/Editor/2021.3.31f1/Editor/Data/NetStandard/compat/2.1.0/shims/netstandard/System.Threading.Tasks.Extensions.dll"
-r:"C:/Program Files/Unity/Hub/Editor/2021.3.31f1/Editor/Data/NetStandard/compat/2.1.0/shims/netstandard/System.Threading.Tasks.Parallel.dll"
-r:"C:/Program Files/Unity/Hub/Editor/2021.3.31f1/Editor/Data/NetStandard/compat/2.1.0/shims/netstandard/System.Threading.Thread.dll"
-r:"C:/Program Files/Unity/Hub/Editor/2021.3.31f1/Editor/Data/NetStandard/compat/2.1.0/shims/netstandard/System.Threading.ThreadPool.dll"
-r:"C:/Program Files/Unity/Hub/Editor/2021.3.31f1/Editor/Data/NetStandard/compat/2.1.0/shims/netstandard/System.Threading.Timer.dll"
-r:"C:/Program Files/Unity/Hub/Editor/2021.3.31f1/Editor/Data/NetStandard/compat/2.1.0/shims/netstandard/System.ValueTuple.dll"
-r:"C:/Program Files/Unity/Hub/Editor/2021.3.31f1/Editor/Data/NetStandard/compat/2.1.0/shims/netstandard/System.Xml.ReaderWriter.dll"
-r:"C:/Program Files/Unity/Hub/Editor/2021.3.31f1/Editor/Data/NetStandard/compat/2.1.0/shims/netstandard/System.Xml.XDocument.dll"
-r:"C:/Program Files/Unity/Hub/Editor/2021.3.31f1/Editor/Data/NetStandard/compat/2.1.0/shims/netstandard/System.Xml.XmlDocument.dll"
-r:"C:/Program Files/Unity/Hub/Editor/2021.3.31f1/Editor/Data/NetStandard/compat/2.1.0/shims/netstandard/System.Xml.XmlSerializer.dll"
-r:"C:/Program Files/Unity/Hub/Editor/2021.3.31f1/Editor/Data/NetStandard/compat/2.1.0/shims/netstandard/System.Xml.XPath.dll"
-r:"C:/Program Files/Unity/Hub/Editor/2021.3.31f1/Editor/Data/NetStandard/compat/2.1.0/shims/netstandard/System.Xml.XPath.XDocument.dll"
-r:"C:/Program Files/Unity/Hub/Editor/2021.3.31f1/Editor/Data/NetStandard/Extensions/2.0.0/System.Runtime.InteropServices.WindowsRuntime.dll"
-r:"C:/Program Files/Unity/Hub/Editor/2021.3.31f1/Editor/Data/NetStandard/ref/2.1.0/netstandard.dll"
-r:"C:/Program Files/Unity/Hub/Editor/2021.3.31f1/Editor/Data/PlaybackEngines/WebGLSupport/Managed/UnityEngine.WebGLModule.dll"
-r:"C:/Program Files/Unity/Hub/Editor/2021.3.31f1/Editor/Data/PlaybackEngines/WebGLSupport/UnityEditor.WebGL.Extensions.dll"
-r:"C:/Program Files/Unity/Hub/Editor/2021.3.31f1/Editor/Data/PlaybackEngines/WindowsStandaloneSupport/UnityEditor.WindowsStandalone.Extensions.dll"
-r:"C:/Users/merzpa/Documents/Lehre/Apps/xr-apps/examples/0_unity/Library/PackageCache/com.unity.collab-proxy@2.1.0/Lib/Editor/PlasticSCM/log4netPlastic.dll"
-r:"C:/Users/merzpa/Documents/Lehre/Apps/xr-apps/examples/0_unity/Library/PackageCache/com.unity.collab-proxy@2.1.0/Lib/Editor/PlasticSCM/Unity.Plastic.Antlr3.Runtime.dll"
-r:"C:/Users/merzpa/Documents/Lehre/Apps/xr-apps/examples/0_unity/Library/PackageCache/com.unity.collab-proxy@2.1.0/Lib/Editor/PlasticSCM/Unity.Plastic.Newtonsoft.Json.dll"
-r:"C:/Users/merzpa/Documents/Lehre/Apps/xr-apps/examples/0_unity/Library/PackageCache/com.unity.collab-proxy@2.1.0/Lib/Editor/PlasticSCM/unityplastic.dll"
-r:"C:/Users/merzpa/Documents/Lehre/Apps/xr-apps/examples/0_unity/Library/PackageCache/com.unity.testtools.codecoverage@1.2.4/lib/ReportGenerator/ReportGeneratorMerged.dll"
-r:"C:/Users/merzpa/Documents/Lehre/Apps/xr-apps/examples/0_unity/Library/PackageCache/com.unity.visualscripting@1.9.1/Editor/VisualScripting.Core/Dependencies/DotNetZip/Unity.VisualScripting.IonicZip.dll"
-r:"C:/Users/merzpa/Documents/Lehre/Apps/xr-apps/examples/0_unity/Library/PackageCache/com.unity.visualscripting@1.9.1/Editor/VisualScripting.Core/Dependencies/YamlDotNet/Unity.VisualScripting.YamlDotNet.dll"
-r:"C:/Users/merzpa/Documents/Lehre/Apps/xr-apps/examples/0_unity/Library/PackageCache/com.unity.visualscripting@1.9.1/Editor/VisualScripting.Core/EditorAssetResources/Unity.VisualScripting.TextureAssets.dll"
-r:"C:/Users/merzpa/Documents/Lehre/Apps/xr-apps/examples/0_unity/Library/PackageCache/com.unity.visualscripting@1.9.1/Runtime/VisualScripting.Flow/Dependencies/NCalc/Unity.VisualScripting.Antlr3.Runtime.dll"
-r:"Library/Bee/artifacts/2000b0aE.dag/UnityEditor.UI.ref.dll"
-r:"Library/Bee/artifacts/2000b0aE.dag/UnityEngine.UI.ref.dll"
"Assets/OpenCVForUnity/Examples/Advanced/AlphaBlendingExample/AlphaBlendingExample.cs"
"Assets/OpenCVForUnity/Examples/Advanced/ComicFilterExample/ComicFilter.cs"
"Assets/OpenCVForUnity/Examples/Advanced/ComicFilterExample/ComicFilterExample.cs"
"Assets/OpenCVForUnity/Examples/Advanced/CountFingersExample/ColorBlobDetector.cs"
"Assets/OpenCVForUnity/Examples/Advanced/CountFingersExample/CountFingersExample.cs"
"Assets/OpenCVForUnity/Examples/Advanced/DocumentScannerExample/DocumentScannerExample.cs"
"Assets/OpenCVForUnity/Examples/Advanced/ImageCorrectionExample/ImageCorrectionExample.cs"
"Assets/OpenCVForUnity/Examples/Advanced/KeyFrameGreenScreenExample/KeyFrameGreenScreenExample.cs"
"Assets/OpenCVForUnity/Examples/Advanced/MultiObjectTrackingBasedOnColorExample/ColorObject.cs"
"Assets/OpenCVForUnity/Examples/Advanced/MultiObjectTrackingBasedOnColorExample/MultiObjectTrackingBasedOnColorExample.cs"
"Assets/OpenCVForUnity/Examples/Advanced/MultiObjectTrackingExample/MultiObjectTrackingExample.cs"
"Assets/OpenCVForUnity/Examples/Advanced/PhysicalGreenScreenExample/PhysicalGreenScreenExample.cs"
"Assets/OpenCVForUnity/Examples/Advanced/PolygonFilterExample/PolygonFilterExample.cs"
"Assets/OpenCVForUnity/Examples/Basic/DebugMatUtilsExample/DebugMatUtilsExample.cs"
"Assets/OpenCVForUnity/Examples/Basic/MatBasicProcessingExample/MatBasicProcessingExample.cs"
"Assets/OpenCVForUnity/Examples/Basic/MultiSource2MatHelperExample/FPSCounter.cs"
"Assets/OpenCVForUnity/Examples/Basic/MultiSource2MatHelperExample/MultiSource2MatHelperExample.cs"
"Assets/OpenCVForUnity/Examples/Basic/Texture2DToMatExample/Texture2DToMatExample.cs"
"Assets/OpenCVForUnity/Examples/Basic/Utils_GetFilePathExample/Utils_GetFilePathExample.cs"
"Assets/OpenCVForUnity/Examples/Basic/WebCamTexture2MatHelperExample/WebCamTexture2MatHelperExample.cs"
"Assets/OpenCVForUnity/Examples/Basic/WebCamTextureToMatExample/WebCamTextureToMatExample.cs"
"Assets/OpenCVForUnity/Examples/Basic/WebCamTextureToMatHelperExample/WebCamTextureToMatHelperExample.cs"
"Assets/OpenCVForUnity/Examples/ContribModules/bgsegm/BackgroundSubtractorExample/BackgroundSubtractorExample.cs"
"Assets/OpenCVForUnity/Examples/ContribModules/face/FaceMarkExample/FaceMarkExample.cs"
"Assets/OpenCVForUnity/Examples/ContribModules/face/FaceRecognizerExample/FaceRecognizerExample.cs"
"Assets/OpenCVForUnity/Examples/ContribModules/plot/PlotExample/PlotExample.cs"
"Assets/OpenCVForUnity/Examples/ContribModules/text/TextExample/TextDetectionExample.cs"
"Assets/OpenCVForUnity/Examples/ContribModules/text/TextExample/TextRecognitionExample.cs"
"Assets/OpenCVForUnity/Examples/ContribModules/tracking/LegacyTrackingExample/LegacyTrackingExample.cs"
"Assets/OpenCVForUnity/Examples/ContribModules/tracking/TrackingExample/TrackingExample.cs"
"Assets/OpenCVForUnity/Examples/FpsMonitor.cs"
"Assets/OpenCVForUnity/Examples/MainModules/calib3d/StereoBMExample/StereoBMExample.cs"
"Assets/OpenCVForUnity/Examples/MainModules/core/KMeansClusteringExample/KMeansClusteringExample.cs"
"Assets/OpenCVForUnity/Examples/MainModules/core/PCAExample/PCAExample.cs"
"Assets/OpenCVForUnity/Examples/MainModules/dnn/ColorizationExample/ColorizationExample.cs"
"Assets/OpenCVForUnity/Examples/MainModules/dnn/DnnObjectDetectionExample.cs"
"Assets/OpenCVForUnity/Examples/MainModules/dnn/DnnObjectDetectionWebCamTextureExample.cs"
"Assets/OpenCVForUnity/Examples/MainModules/dnn/FaceDetectionYuNetExample/FaceDetectionYuNetExample.cs"
"Assets/OpenCVForUnity/Examples/MainModules/dnn/FaceDetectionYuNetV2Example/FaceDetectionYuNetV2Example.cs"
"Assets/OpenCVForUnity/Examples/MainModules/dnn/FaceDetectionYuNetV2Example/YuNetV2FaceDetector.cs"
"Assets/OpenCVForUnity/Examples/MainModules/dnn/FacialExpressionRecognitionExample/FacialExpressionRecognitionExample.cs"
"Assets/OpenCVForUnity/Examples/MainModules/dnn/FacialExpressionRecognitionExample/FacialExpressionRecognizer.cs"
"Assets/OpenCVForUnity/Examples/MainModules/dnn/FastNeuralStyleTransferExample/FastNeuralStyleTransferExample.cs"
"Assets/OpenCVForUnity/Examples/MainModules/dnn/HandPoseEstimationMediaPipeExample/HandPoseEstimationMediaPipeExample.cs"
"Assets/OpenCVForUnity/Examples/MainModules/dnn/HandPoseEstimationMediaPipeExample/MediaPipeHandPoseEstimator.cs"
"Assets/OpenCVForUnity/Examples/MainModules/dnn/HandPoseEstimationMediaPipeExample/MediaPipeHandPoseSkeletonVisualizer.cs"
"Assets/OpenCVForUnity/Examples/MainModules/dnn/HandPoseEstimationMediaPipeExample/MediaPipePalmDetector.cs"
"Assets/OpenCVForUnity/Examples/MainModules/dnn/HumanSegmentationPPHumanSegExample/HumanSegmentationPPHumanSegExample.cs"
"Assets/OpenCVForUnity/Examples/MainModules/dnn/ImageClassificationMobilenetExample/ImageClassificationMobilenetExample.cs"
"Assets/OpenCVForUnity/Examples/MainModules/dnn/ImageClassificationPPResnetExample/ImageClassificationPPResnetExample.cs"
"Assets/OpenCVForUnity/Examples/MainModules/dnn/ObjectDetectionNanoDetPlusExample/NanoDetPlusObjectDetector.cs"
"Assets/OpenCVForUnity/Examples/MainModules/dnn/ObjectDetectionNanoDetPlusExample/ObjectDetectionNanoDetPlusExample.cs"
"Assets/OpenCVForUnity/Examples/MainModules/dnn/ObjectDetectionYOLOv4Example/ObjectDetectionYOLOv4Example.cs"
"Assets/OpenCVForUnity/Examples/MainModules/dnn/ObjectDetectionYOLOv4Example/YOLOv4ObjectDetector.cs"
"Assets/OpenCVForUnity/Examples/MainModules/dnn/ObjectDetectionYOLOXExample/ObjectDetectionYOLOXExample.cs"
"Assets/OpenCVForUnity/Examples/MainModules/dnn/ObjectDetectionYOLOXExample/YOLOXObjectDetector.cs"
"Assets/OpenCVForUnity/Examples/MainModules/dnn/ObjectTrackingDaSiamRPNExample/ObjectTrackingDaSiamRPNExample.cs"
"Assets/OpenCVForUnity/Examples/MainModules/dnn/PoseEstimationMediaPipeExample/MediaPipePersonDetector.cs"
"Assets/OpenCVForUnity/Examples/MainModules/dnn/PoseEstimationMediaPipeExample/MediaPipePoseEstimator.cs"
"Assets/OpenCVForUnity/Examples/MainModules/dnn/PoseEstimationMediaPipeExample/MediaPipePoseSkeletonVisualizer.cs"
"Assets/OpenCVForUnity/Examples/MainModules/dnn/PoseEstimationMediaPipeExample/PoseEstimationMediaPipeExample.cs"
"Assets/OpenCVForUnity/Examples/MainModules/dnn/TextRecognitionCRNNExample/TextRecognitionCRNNExample.cs"
"Assets/OpenCVForUnity/Examples/MainModules/dnn/TextRecognitionCRNNExample/TextRecognitionCRNNImageExample.cs"
"Assets/OpenCVForUnity/Examples/MainModules/dnn/TextRecognitionCRNNExample/TextRecognitionCRNNWebCamExample.cs"
"Assets/OpenCVForUnity/Examples/MainModules/features2d/FeatureMatchingExample/FeatureMatchingExample.cs"
"Assets/OpenCVForUnity/Examples/MainModules/features2d/MSERExample/MSERExample.cs"
"Assets/OpenCVForUnity/Examples/MainModules/features2d/SimpleBlobExample/SimpleBlobExample.cs"
"Assets/OpenCVForUnity/Examples/MainModules/imgcodecs/ImwriteScreenCaptureExample/ImwriteScreenCaptureExample.cs"
"Assets/OpenCVForUnity/Examples/MainModules/imgproc/CircleDetectionExample/CircleDetectionExample.cs"
"Assets/OpenCVForUnity/Examples/MainModules/imgproc/ConnectedComponentsExample/ConnectedComponentsExample.cs"
"Assets/OpenCVForUnity/Examples/MainModules/imgproc/ConvexHullExample/ConvexHullExample.cs"
"Assets/OpenCVForUnity/Examples/MainModules/imgproc/DrawingExample/DrawingExample.cs"
"Assets/OpenCVForUnity/Examples/MainModules/imgproc/GrabCutExample/GrabCutExample.cs"
"Assets/OpenCVForUnity/Examples/MainModules/imgproc/HoughLinesPExample/HoughLinesPExample.cs"
"Assets/OpenCVForUnity/Examples/MainModules/imgproc/MatchShapesExample/MatchShapesExample.cs"
"Assets/OpenCVForUnity/Examples/MainModules/imgproc/MatchTemplateExample/MatchTemplateExample.cs"
"Assets/OpenCVForUnity/Examples/MainModules/imgproc/ThresholdExample/ThresholdExample.cs"
"Assets/OpenCVForUnity/Examples/MainModules/imgproc/WrapPerspectiveExample/WrapPerspectiveExample.cs"
"Assets/OpenCVForUnity/Examples/MainModules/ml/KNNExample/KNNExample.cs"
"Assets/OpenCVForUnity/Examples/MainModules/ml/SVMExample/SVMExample.cs"
"Assets/OpenCVForUnity/Examples/MainModules/objdetect/ArUcoExample/ArUcoCameraCalibrationExample.cs"
"Assets/OpenCVForUnity/Examples/MainModules/objdetect/ArUcoExample/ArUcoCreateMarkerExample.cs"
"Assets/OpenCVForUnity/Examples/MainModules/objdetect/ArUcoExample/ArUcoExample.cs"
"Assets/OpenCVForUnity/Examples/MainModules/objdetect/ArUcoExample/ArUcoImageExample.cs"
"Assets/OpenCVForUnity/Examples/MainModules/objdetect/ArUcoExample/ArUcoWebCamExample.cs"
"Assets/OpenCVForUnity/Examples/MainModules/objdetect/ArUcoExample/CameraParameters.cs"
"Assets/OpenCVForUnity/Examples/MainModules/objdetect/BarcodeDetectorExample/BarcodeDetectorExample.cs"
"Assets/OpenCVForUnity/Examples/MainModules/objdetect/BarcodeDetectorExample/BarcodeDetectorImageExample.cs"
"Assets/OpenCVForUnity/Examples/MainModules/objdetect/BarcodeDetectorExample/BarcodeDetectorWebCamExample.cs"
"Assets/OpenCVForUnity/Examples/MainModules/objdetect/FaceDetectionExample/AsynchronousFaceDetectionExample.cs"
"Assets/OpenCVForUnity/Examples/MainModules/objdetect/FaceDetectionExample/AsynchronousFaceDetectionWebCamExample.cs"
"Assets/OpenCVForUnity/Examples/MainModules/objdetect/FaceDetectionExample/FaceDetectionExample.cs"
"Assets/OpenCVForUnity/Examples/MainModules/objdetect/FaceDetectionExample/FaceDetectionImageExample.cs"
"Assets/OpenCVForUnity/Examples/MainModules/objdetect/FaceDetectionExample/FaceDetectionWebCamExample.cs"
"Assets/OpenCVForUnity/Examples/MainModules/objdetect/FaceDetectorYNExample/FaceDetectorYNExample.cs"
"Assets/OpenCVForUnity/Examples/MainModules/objdetect/FaceDetectorYNExample/FaceDetectorYNWebCamExample.cs"
"Assets/OpenCVForUnity/Examples/MainModules/objdetect/FaceRecognizerSFExample/FaceRecognizerSFExample.cs"
"Assets/OpenCVForUnity/Examples/MainModules/objdetect/HOGDescriptorExample/HOGDescriptorExample.cs"
"Assets/OpenCVForUnity/Examples/MainModules/objdetect/QRCodeDetectorExample/QRCodeDetectorExample.cs"
"Assets/OpenCVForUnity/Examples/MainModules/objdetect/QRCodeDetectorExample/QRCodeDetectorImageExample.cs"
"Assets/OpenCVForUnity/Examples/MainModules/objdetect/QRCodeDetectorExample/QRCodeDetectorWebCamExample.cs"
"Assets/OpenCVForUnity/Examples/MainModules/objdetect/QRCodeEncoderExample/QRCodeEncoderExample.cs"
"Assets/OpenCVForUnity/Examples/MainModules/photo/InpaintExample/InpaintExample.cs"
"Assets/OpenCVForUnity/Examples/MainModules/photo/SeamlessCloneExample/SeamlessCloneExample.cs"
"Assets/OpenCVForUnity/Examples/MainModules/video/CamShiftExample/CamShiftExample.cs"
"Assets/OpenCVForUnity/Examples/MainModules/video/KalmanFilterExample/KalmanFilterExample.cs"
"Assets/OpenCVForUnity/Examples/MainModules/video/OpticalFlowExample/OpticalFlowExample.cs"
"Assets/OpenCVForUnity/Examples/MainModules/video/TransformECCExample/TransformECCExample.cs"
"Assets/OpenCVForUnity/Examples/MainModules/videoio/VideoCaptureCameraInputExample/VideoCaptureCameraInputExample.cs"
"Assets/OpenCVForUnity/Examples/MainModules/videoio/VideoCaptureExample/VideoCaptureExample.cs"
"Assets/OpenCVForUnity/Examples/MainModules/videoio/VideoWriterAsyncExample/VideoWriterAsyncExample.cs"
"Assets/OpenCVForUnity/Examples/MainModules/videoio/VideoWriterExample/VideoWriterExample.cs"
"Assets/OpenCVForUnity/Examples/OpenCVForUnityExample.cs"
"Assets/OpenCVForUnity/Examples/ShowLicense.cs"
"Assets/OpenCVForUnity/Examples/ShowSystemInfo.cs"
"Assets/OpenCVForUnity/Examples/TouchController.cs"
"Assets/OpenCVForUnity/org/opencv/calib3d/Calib3d.cs"
"Assets/OpenCVForUnity/org/opencv/calib3d/Calib3d_Struct.cs"
"Assets/OpenCVForUnity/org/opencv/calib3d/Calib3d_ValueTuple.cs"
"Assets/OpenCVForUnity/org/opencv/calib3d/StereoBM.cs"
"Assets/OpenCVForUnity/org/opencv/calib3d/StereoBM_Struct.cs"
"Assets/OpenCVForUnity/org/opencv/calib3d/StereoBM_ValueTuple.cs"
"Assets/OpenCVForUnity/org/opencv/calib3d/StereoMatcher.cs"
"Assets/OpenCVForUnity/org/opencv/calib3d/StereoSGBM.cs"
"Assets/OpenCVForUnity/org/opencv/calib3d/UsacParams.cs"
"Assets/OpenCVForUnity/org/opencv/core/Algorithm.cs"
"Assets/OpenCVForUnity/org/opencv/core/Core.cs"
"Assets/OpenCVForUnity/org/opencv/core/Core_Struct.cs"
"Assets/OpenCVForUnity/org/opencv/core/Core_ValueTuple.cs"
"Assets/OpenCVForUnity/org/opencv/core/CvException.cs"
"Assets/OpenCVForUnity/org/opencv/core/CvType.cs"
"Assets/OpenCVForUnity/org/opencv/core/DMatch.cs"
"Assets/OpenCVForUnity/org/opencv/core/DMatch_Ex.cs"
"Assets/OpenCVForUnity/org/opencv/core/KeyPoint.cs"
"Assets/OpenCVForUnity/org/opencv/core/KeyPoint_Ex.cs"
"Assets/OpenCVForUnity/org/opencv/core/Mat.cs"
"Assets/OpenCVForUnity/org/opencv/core/MatOfByte.cs"
"Assets/OpenCVForUnity/org/opencv/core/MatOfDMatch.cs"
"Assets/OpenCVForUnity/org/opencv/core/MatOfDMatch_Ex.cs"
"Assets/OpenCVForUnity/org/opencv/core/MatOfDouble.cs"
"Assets/OpenCVForUnity/org/opencv/core/MatOfFloat.cs"
"Assets/OpenCVForUnity/org/opencv/core/MatOfFloat4.cs"
"Assets/OpenCVForUnity/org/opencv/core/MatOfFloat4_Ex.cs"
"Assets/OpenCVForUnity/org/opencv/core/MatOfFloat6.cs"
"Assets/OpenCVForUnity/org/opencv/core/MatOfFloat6_Ex.cs"
"Assets/OpenCVForUnity/org/opencv/core/MatOfInt.cs"
"Assets/OpenCVForUnity/org/opencv/core/MatOfInt4.cs"
"Assets/OpenCVForUnity/org/opencv/core/MatOfInt4_Ex.cs"
"Assets/OpenCVForUnity/org/opencv/core/MatOfKeyPoint.cs"
"Assets/OpenCVForUnity/org/opencv/core/MatOfKeyPoint_Ex.cs"
"Assets/OpenCVForUnity/org/opencv/core/MatOfPoint.cs"
"Assets/OpenCVForUnity/org/opencv/core/MatOfPoint2f.cs"
"Assets/OpenCVForUnity/org/opencv/core/MatOfPoint2f_Ex.cs"
"Assets/OpenCVForUnity/org/opencv/core/MatOfPoint3.cs"
"Assets/OpenCVForUnity/org/opencv/core/MatOfPoint3f.cs"
"Assets/OpenCVForUnity/org/opencv/core/MatOfPoint3f_Ex.cs"
"Assets/OpenCVForUnity/org/opencv/core/MatOfPoint3_Ex.cs"
"Assets/OpenCVForUnity/org/opencv/core/MatOfPoint_Ex.cs"
"Assets/OpenCVForUnity/org/opencv/core/MatOfRect.cs"
"Assets/OpenCVForUnity/org/opencv/core/MatOfRect2d.cs"
"Assets/OpenCVForUnity/org/opencv/core/MatOfRect2d_Ex.cs"
"Assets/OpenCVForUnity/org/opencv/core/MatOfRect_Ex.cs"
"Assets/OpenCVForUnity/org/opencv/core/MatOfRotatedRect.cs"
"Assets/OpenCVForUnity/org/opencv/core/MatOfRotatedRect_Ex.cs"
"Assets/OpenCVForUnity/org/opencv/core/Mat_Ex.cs"
"Assets/OpenCVForUnity/org/opencv/core/Mat_Struct.cs"
"Assets/OpenCVForUnity/org/opencv/core/Mat_ValueTuple.cs"
"Assets/OpenCVForUnity/org/opencv/core/Point.cs"
"Assets/OpenCVForUnity/org/opencv/core/Point3.cs"
"Assets/OpenCVForUnity/org/opencv/core/Point3_Ex.cs"
"Assets/OpenCVForUnity/org/opencv/core/Point_Ex.cs"
"Assets/OpenCVForUnity/org/opencv/core/Range.cs"
"Assets/OpenCVForUnity/org/opencv/core/Range_Ex.cs"
"Assets/OpenCVForUnity/org/opencv/core/Rect.cs"
"Assets/OpenCVForUnity/org/opencv/core/Rect2d.cs"
"Assets/OpenCVForUnity/org/opencv/core/Rect2d_Ex.cs"
"Assets/OpenCVForUnity/org/opencv/core/Rect_Ex.cs"
"Assets/OpenCVForUnity/org/opencv/core/RotatedRect.cs"
"Assets/OpenCVForUnity/org/opencv/core/RotatedRect_Ex.cs"
"Assets/OpenCVForUnity/org/opencv/core/Scalar.cs"
"Assets/OpenCVForUnity/org/opencv/core/Scalar_Ex.cs"
"Assets/OpenCVForUnity/org/opencv/core/Size.cs"
"Assets/OpenCVForUnity/org/opencv/core/Size_Ex.cs"
"Assets/OpenCVForUnity/org/opencv/core/TermCriteria.cs"
"Assets/OpenCVForUnity/org/opencv/core/TermCriteria_Ex.cs"
"Assets/OpenCVForUnity/org/opencv/core/TickMeter.cs"
"Assets/OpenCVForUnity/org/opencv/DisposableObject.cs"
"Assets/OpenCVForUnity/org/opencv/DisposableOpenCVObject.cs"
"Assets/OpenCVForUnity/org/opencv/dnn/ClassificationModel.cs"
"Assets/OpenCVForUnity/org/opencv/dnn/DetectionModel.cs"
"Assets/OpenCVForUnity/org/opencv/dnn/DictValue.cs"
"Assets/OpenCVForUnity/org/opencv/dnn/Dnn.cs"
"Assets/OpenCVForUnity/org/opencv/dnn/Dnn_Struct.cs"
"Assets/OpenCVForUnity/org/opencv/dnn/Dnn_ValueTuple.cs"
"Assets/OpenCVForUnity/org/opencv/dnn/Image2BlobParams.cs"
"Assets/OpenCVForUnity/org/opencv/dnn/Image2BlobParams_Struct.cs"
"Assets/OpenCVForUnity/org/opencv/dnn/Image2BlobParams_ValueTuple.cs"
"Assets/OpenCVForUnity/org/opencv/dnn/KeypointsModel.cs"
"Assets/OpenCVForUnity/org/opencv/dnn/Layer.cs"
"Assets/OpenCVForUnity/org/opencv/dnn/Model.cs"
"Assets/OpenCVForUnity/org/opencv/dnn/Model_Struct.cs"
"Assets/OpenCVForUnity/org/opencv/dnn/Model_ValueTuple.cs"
"Assets/OpenCVForUnity/org/opencv/dnn/Net.cs"
"Assets/OpenCVForUnity/org/opencv/dnn/Net_Struct.cs"
"Assets/OpenCVForUnity/org/opencv/dnn/Net_ValueTuple.cs"
"Assets/OpenCVForUnity/org/opencv/dnn/SegmentationModel.cs"
"Assets/OpenCVForUnity/org/opencv/dnn/TextDetectionModel.cs"
"Assets/OpenCVForUnity/org/opencv/dnn/TextDetectionModel_DB.cs"
"Assets/OpenCVForUnity/org/opencv/dnn/TextDetectionModel_EAST.cs"
"Assets/OpenCVForUnity/org/opencv/dnn/TextRecognitionModel.cs"
"Assets/OpenCVForUnity/org/opencv/features2d/AffineFeature.cs"
"Assets/OpenCVForUnity/org/opencv/features2d/AgastFeatureDetector.cs"
"Assets/OpenCVForUnity/org/opencv/features2d/AKAZE.cs"
"Assets/OpenCVForUnity/org/opencv/features2d/BFMatcher.cs"
"Assets/OpenCVForUnity/org/opencv/features2d/BOWImgDescriptorExtractor.cs"
"Assets/OpenCVForUnity/org/opencv/features2d/BOWKMeansTrainer.cs"
"Assets/OpenCVForUnity/org/opencv/features2d/BOWKMeansTrainer_Struct.cs"
"Assets/OpenCVForUnity/org/opencv/features2d/BOWKMeansTrainer_ValueTuple.cs"
"Assets/OpenCVForUnity/org/opencv/features2d/BOWTrainer.cs"
"Assets/OpenCVForUnity/org/opencv/features2d/BRISK.cs"
"Assets/OpenCVForUnity/org/opencv/features2d/DescriptorMatcher.cs"
"Assets/OpenCVForUnity/org/opencv/features2d/FastFeatureDetector.cs"
"Assets/OpenCVForUnity/org/opencv/features2d/Feature2D.cs"
"Assets/OpenCVForUnity/org/opencv/features2d/Features2d.cs"
"Assets/OpenCVForUnity/org/opencv/features2d/Features2d_Struct.cs"
"Assets/OpenCVForUnity/org/opencv/features2d/Features2d_ValueTuple.cs"
"Assets/OpenCVForUnity/org/opencv/features2d/FlannBasedMatcher.cs"
"Assets/OpenCVForUnity/org/opencv/features2d/GFTTDetector.cs"
"Assets/OpenCVForUnity/org/opencv/features2d/KAZE.cs"
"Assets/OpenCVForUnity/org/opencv/features2d/MSER.cs"
"Assets/OpenCVForUnity/org/opencv/features2d/ORB.cs"
"Assets/OpenCVForUnity/org/opencv/features2d/SIFT.cs"
"Assets/OpenCVForUnity/org/opencv/features2d/SimpleBlobDetector.cs"
"Assets/OpenCVForUnity/org/opencv/features2d/SimpleBlobDetector_Params.cs"
"Assets/OpenCVForUnity/org/opencv/imgcodecs/Imgcodecs.cs"
"Assets/OpenCVForUnity/org/opencv/imgproc/CLAHE.cs"
"Assets/OpenCVForUnity/org/opencv/imgproc/CLAHE_Struct.cs"
"Assets/OpenCVForUnity/org/opencv/imgproc/CLAHE_ValueTuple.cs"
"Assets/OpenCVForUnity/org/opencv/imgproc/GeneralizedHough.cs"
"Assets/OpenCVForUnity/org/opencv/imgproc/GeneralizedHoughBallard.cs"
"Assets/OpenCVForUnity/org/opencv/imgproc/GeneralizedHoughGuil.cs"
"Assets/OpenCVForUnity/org/opencv/imgproc/GeneralizedHough_Struct.cs"
"Assets/OpenCVForUnity/org/opencv/imgproc/GeneralizedHough_ValueTuple.cs"
"Assets/OpenCVForUnity/org/opencv/imgproc/Imgproc.cs"
"Assets/OpenCVForUnity/org/opencv/imgproc/Imgproc_Struct.cs"
"Assets/OpenCVForUnity/org/opencv/imgproc/Imgproc_ValueTuple.cs"
"Assets/OpenCVForUnity/org/opencv/imgproc/IntelligentScissorsMB.cs"
"Assets/OpenCVForUnity/org/opencv/imgproc/IntelligentScissorsMB_Struct.cs"
"Assets/OpenCVForUnity/org/opencv/imgproc/IntelligentScissorsMB_ValueTuple.cs"
"Assets/OpenCVForUnity/org/opencv/imgproc/LineSegmentDetector.cs"
"Assets/OpenCVForUnity/org/opencv/imgproc/LineSegmentDetector_Struct.cs"
"Assets/OpenCVForUnity/org/opencv/imgproc/LineSegmentDetector_ValueTuple.cs"
"Assets/OpenCVForUnity/org/opencv/imgproc/Moments.cs"
"Assets/OpenCVForUnity/org/opencv/imgproc/Moments_Ex.cs"
"Assets/OpenCVForUnity/org/opencv/imgproc/Subdiv2D.cs"
"Assets/OpenCVForUnity/org/opencv/imgproc/Subdiv2D_Struct.cs"
"Assets/OpenCVForUnity/org/opencv/imgproc/Subdiv2D_ValueTuple.cs"
"Assets/OpenCVForUnity/org/opencv/ml/ANN_MLP.cs"
"Assets/OpenCVForUnity/org/opencv/ml/ANN_MLP_Struct.cs"
"Assets/OpenCVForUnity/org/opencv/ml/ANN_MLP_ValueTuple.cs"
"Assets/OpenCVForUnity/org/opencv/ml/Boost.cs"
"Assets/OpenCVForUnity/org/opencv/ml/DTrees.cs"
"Assets/OpenCVForUnity/org/opencv/ml/EM.cs"
"Assets/OpenCVForUnity/org/opencv/ml/EM_Struct.cs"
"Assets/OpenCVForUnity/org/opencv/ml/EM_ValueTuple.cs"
"Assets/OpenCVForUnity/org/opencv/ml/KNearest.cs"
"Assets/OpenCVForUnity/org/opencv/ml/LogisticRegression.cs"
"Assets/OpenCVForUnity/org/opencv/ml/LogisticRegression_Struct.cs"
"Assets/OpenCVForUnity/org/opencv/ml/LogisticRegression_ValueTuple.cs"
"Assets/OpenCVForUnity/org/opencv/ml/Ml.cs"
"Assets/OpenCVForUnity/org/opencv/ml/NormalBayesClassifier.cs"
"Assets/OpenCVForUnity/org/opencv/ml/ParamGrid.cs"
"Assets/OpenCVForUnity/org/opencv/ml/RTrees.cs"
"Assets/OpenCVForUnity/org/opencv/ml/RTrees_Struct.cs"
"Assets/OpenCVForUnity/org/opencv/ml/RTrees_ValueTuple.cs"
"Assets/OpenCVForUnity/org/opencv/ml/StatModel.cs"
"Assets/OpenCVForUnity/org/opencv/ml/SVM.cs"
"Assets/OpenCVForUnity/org/opencv/ml/SVMSGD.cs"
"Assets/OpenCVForUnity/org/opencv/ml/SVMSGD_Struct.cs"
"Assets/OpenCVForUnity/org/opencv/ml/SVMSGD_ValueTuple.cs"
"Assets/OpenCVForUnity/org/opencv/ml/SVM_Struct.cs"
"Assets/OpenCVForUnity/org/opencv/ml/SVM_ValueTuple.cs"
"Assets/OpenCVForUnity/org/opencv/ml/TrainData.cs"
"Assets/OpenCVForUnity/org/opencv/objdetect/ArucoDetector.cs"
"Assets/OpenCVForUnity/org/opencv/objdetect/BarcodeDetector.cs"
"Assets/OpenCVForUnity/org/opencv/objdetect/BaseCascadeClassifier.cs"
"Assets/OpenCVForUnity/org/opencv/objdetect/Board.cs"
"Assets/OpenCVForUnity/org/opencv/objdetect/Board_Struct.cs"
"Assets/OpenCVForUnity/org/opencv/objdetect/Board_ValueTuple.cs"
"Assets/OpenCVForUnity/org/opencv/objdetect/CascadeClassifier.cs"
"Assets/OpenCVForUnity/org/opencv/objdetect/CascadeClassifier_Struct.cs"
"Assets/OpenCVForUnity/org/opencv/objdetect/CascadeClassifier_ValueTuple.cs"
"Assets/OpenCVForUnity/org/opencv/objdetect/CharucoBoard.cs"
"Assets/OpenCVForUnity/org/opencv/objdetect/CharucoBoard_Struct.cs"
"Assets/OpenCVForUnity/org/opencv/objdetect/CharucoBoard_ValueTuple.cs"
"Assets/OpenCVForUnity/org/opencv/objdetect/CharucoDetector.cs"
"Assets/OpenCVForUnity/org/opencv/objdetect/CharucoParameters.cs"
"Assets/OpenCVForUnity/org/opencv/objdetect/DetectorParameters.cs"
"Assets/OpenCVForUnity/org/opencv/objdetect/Dictionary.cs"
"Assets/OpenCVForUnity/org/opencv/objdetect/FaceDetectorYN.cs"
"Assets/OpenCVForUnity/org/opencv/objdetect/FaceDetectorYN_Struct.cs"
"Assets/OpenCVForUnity/org/opencv/objdetect/FaceDetectorYN_ValueTuple.cs"
"Assets/OpenCVForUnity/org/opencv/objdetect/FaceRecognizerSF.cs"
"Assets/OpenCVForUnity/org/opencv/objdetect/GraphicalCodeDetector.cs"
"Assets/OpenCVForUnity/org/opencv/objdetect/GridBoard.cs"
"Assets/OpenCVForUnity/org/opencv/objdetect/GridBoard_Struct.cs"
"Assets/OpenCVForUnity/org/opencv/objdetect/GridBoard_ValueTuple.cs"
"Assets/OpenCVForUnity/org/opencv/objdetect/HOGDescriptor.cs"
"Assets/OpenCVForUnity/org/opencv/objdetect/HOGDescriptor_Struct.cs"
"Assets/OpenCVForUnity/org/opencv/objdetect/HOGDescriptor_ValueTuple.cs"
"Assets/OpenCVForUnity/org/opencv/objdetect/Objdetect.cs"
"Assets/OpenCVForUnity/org/opencv/objdetect/Objdetect_Struct.cs"
"Assets/OpenCVForUnity/org/opencv/objdetect/Objdetect_ValueTuple.cs"
"Assets/OpenCVForUnity/org/opencv/objdetect/QRCodeDetector.cs"
"Assets/OpenCVForUnity/org/opencv/objdetect/QRCodeDetectorAruco.cs"
"Assets/OpenCVForUnity/org/opencv/objdetect/QRCodeDetectorAruco_Params.cs"
"Assets/OpenCVForUnity/org/opencv/objdetect/QRCodeEncoder.cs"
"Assets/OpenCVForUnity/org/opencv/objdetect/QRCodeEncoder_Params.cs"
"Assets/OpenCVForUnity/org/opencv/objdetect/RefineParameters.cs"
"Assets/OpenCVForUnity/org/opencv/photo/AlignExposures.cs"
"Assets/OpenCVForUnity/org/opencv/photo/AlignMTB.cs"
"Assets/OpenCVForUnity/org/opencv/photo/AlignMTB_Struct.cs"
"Assets/OpenCVForUnity/org/opencv/photo/AlignMTB_ValueTuple.cs"
"Assets/OpenCVForUnity/org/opencv/photo/CalibrateCRF.cs"
"Assets/OpenCVForUnity/org/opencv/photo/CalibrateDebevec.cs"
"Assets/OpenCVForUnity/org/opencv/photo/CalibrateRobertson.cs"
"Assets/OpenCVForUnity/org/opencv/photo/MergeDebevec.cs"
"Assets/OpenCVForUnity/org/opencv/photo/MergeExposures.cs"
"Assets/OpenCVForUnity/org/opencv/photo/MergeMertens.cs"
"Assets/OpenCVForUnity/org/opencv/photo/MergeRobertson.cs"
"Assets/OpenCVForUnity/org/opencv/photo/Photo.cs"
"Assets/OpenCVForUnity/org/opencv/photo/Photo_Struct.cs"
"Assets/OpenCVForUnity/org/opencv/photo/Photo_ValueTuple.cs"
"Assets/OpenCVForUnity/org/opencv/photo/Tonemap.cs"
"Assets/OpenCVForUnity/org/opencv/photo/TonemapDrago.cs"
"Assets/OpenCVForUnity/org/opencv/photo/TonemapMantiuk.cs"
"Assets/OpenCVForUnity/org/opencv/photo/TonemapReinhard.cs"
"Assets/OpenCVForUnity/org/opencv/unity/ARUtils.cs"
"Assets/OpenCVForUnity/org/opencv/unity/DebugMatUtils/BigImageWindow.cs"
"Assets/OpenCVForUnity/org/opencv/unity/DebugMatUtils/DebugMatUtils.cs"
"Assets/OpenCVForUnity/org/opencv/unity/DebugMatUtils/ImageWindow.cs"
"Assets/OpenCVForUnity/org/opencv/unity/DebugMatUtils/OpenCVDebugMatCanvas.cs"
"Assets/OpenCVForUnity/org/opencv/unity/helper/ARHelper/ARHelper.cs"
"Assets/OpenCVForUnity/org/opencv/unity/helper/ARHelper/Editor/LabeledArrayAttribute.cs"
"Assets/OpenCVForUnity/org/opencv/unity/helper/ARHelper/Editor/LabeledArrayDrawer.cs"
"Assets/OpenCVForUnity/org/opencv/unity/helper/ImageOptimizationHelper.cs"
"Assets/OpenCVForUnity/org/opencv/unity/helper/Source2MatHelper/AsyncGPUReadback2MatHelper.cs"
"Assets/OpenCVForUnity/org/opencv/unity/helper/Source2MatHelper/Editor/DeviceSimulatorUtils.cs"
"Assets/OpenCVForUnity/org/opencv/unity/helper/Source2MatHelper/Editor/OpenCVForUnityConditionalDisableDrawer.cs"
"Assets/OpenCVForUnity/org/opencv/unity/helper/Source2MatHelper/Editor/OpenCVForUnityConditionalDisableInInspectorAttribute.cs"
"Assets/OpenCVForUnity/org/opencv/unity/helper/Source2MatHelper/Editor/OpenCVForUnityRuntimeDisableAttribute.cs"
"Assets/OpenCVForUnity/org/opencv/unity/helper/Source2MatHelper/FpsManager.cs"
"Assets/OpenCVForUnity/org/opencv/unity/helper/Source2MatHelper/ICameraSource2MatHelper.cs"
"Assets/OpenCVForUnity/org/opencv/unity/helper/Source2MatHelper/IImageSource2MatHelper.cs"
"Assets/OpenCVForUnity/org/opencv/unity/helper/Source2MatHelper/Image2MatHelper.cs"
"Assets/OpenCVForUnity/org/opencv/unity/helper/Source2MatHelper/IMatUpdateFPSProvider.cs"
"Assets/OpenCVForUnity/org/opencv/unity/helper/Source2MatHelper/ISource2MatHelper.cs"
"Assets/OpenCVForUnity/org/opencv/unity/helper/Source2MatHelper/ITextureSource2MatHelper.cs"
"Assets/OpenCVForUnity/org/opencv/unity/helper/Source2MatHelper/IVideoSource2MatHelper.cs"
"Assets/OpenCVForUnity/org/opencv/unity/helper/Source2MatHelper/MultiSource2MatHelper.cs"
"Assets/OpenCVForUnity/org/opencv/unity/helper/Source2MatHelper/Source2MatHelperColorFormat.cs"
"Assets/OpenCVForUnity/org/opencv/unity/helper/Source2MatHelper/Source2MatHelperErrorCode.cs"
"Assets/OpenCVForUnity/org/opencv/unity/helper/Source2MatHelper/Source2MatHelperErrorUnityEvent.cs"
"Assets/OpenCVForUnity/org/opencv/unity/helper/Source2MatHelper/Source2MatHelperUtils.cs"
"Assets/OpenCVForUnity/org/opencv/unity/helper/Source2MatHelper/UnityVideoPlayer2MatHelper.cs"
"Assets/OpenCVForUnity/org/opencv/unity/helper/Source2MatHelper/VideoCapture2MatHelper.cs"
"Assets/OpenCVForUnity/org/opencv/unity/helper/Source2MatHelper/VideoCaptureCameraInput2MatHelper.cs"
"Assets/OpenCVForUnity/org/opencv/unity/helper/Source2MatHelper/WebCamTexture2MatAsyncGPUHelper.cs"
"Assets/OpenCVForUnity/org/opencv/unity/helper/Source2MatHelper/WebCamTexture2MatHelper.cs"
"Assets/OpenCVForUnity/org/opencv/unity/helper/VideoCaptureCameraInputToMatHelper.cs"
"Assets/OpenCVForUnity/org/opencv/unity/helper/VideoCaptureToMatHelper.cs"
"Assets/OpenCVForUnity/org/opencv/unity/helper/WebCamTextureToMatHelper.cs"
"Assets/OpenCVForUnity/org/opencv/unity/MultiObjectTracking/ByteTrack/BYTETracker.cs"
"Assets/OpenCVForUnity/org/opencv/unity/MultiObjectTracking/ByteTrack/Detection.cs"
"Assets/OpenCVForUnity/org/opencv/unity/MultiObjectTracking/ByteTrack/KalmanFilter.cs"
"Assets/OpenCVForUnity/org/opencv/unity/MultiObjectTracking/ByteTrack/Lapjv.cs"
"Assets/OpenCVForUnity/org/opencv/unity/MultiObjectTracking/ByteTrack/Rect.cs"
"Assets/OpenCVForUnity/org/opencv/unity/MultiObjectTracking/ByteTrack/Track.cs"
"Assets/OpenCVForUnity/org/opencv/unity/Utils.cs"
"Assets/OpenCVForUnity/org/opencv/unity/Utils_ComputeShader.cs"
"Assets/OpenCVForUnity/org/opencv/unity/Vec/Vec10d.cs"
"Assets/OpenCVForUnity/org/opencv/unity/Vec/Vec2b.cs"
"Assets/OpenCVForUnity/org/opencv/unity/Vec/Vec2c.cs"
"Assets/OpenCVForUnity/org/opencv/unity/Vec/Vec2d.cs"
"Assets/OpenCVForUnity/org/opencv/unity/Vec/Vec2f.cs"
"Assets/OpenCVForUnity/org/opencv/unity/Vec/Vec2i.cs"
"Assets/OpenCVForUnity/org/opencv/unity/Vec/Vec2s.cs"
"Assets/OpenCVForUnity/org/opencv/unity/Vec/Vec2w.cs"
"Assets/OpenCVForUnity/org/opencv/unity/Vec/Vec3b.cs"
"Assets/OpenCVForUnity/org/opencv/unity/Vec/Vec3c.cs"
"Assets/OpenCVForUnity/org/opencv/unity/Vec/Vec3d.cs"
"Assets/OpenCVForUnity/org/opencv/unity/Vec/Vec3f.cs"
"Assets/OpenCVForUnity/org/opencv/unity/Vec/Vec3i.cs"
"Assets/OpenCVForUnity/org/opencv/unity/Vec/Vec3s.cs"
"Assets/OpenCVForUnity/org/opencv/unity/Vec/Vec3w.cs"
"Assets/OpenCVForUnity/org/opencv/unity/Vec/Vec4b.cs"
"Assets/OpenCVForUnity/org/opencv/unity/Vec/Vec4c.cs"
"Assets/OpenCVForUnity/org/opencv/unity/Vec/Vec4d.cs"
"Assets/OpenCVForUnity/org/opencv/unity/Vec/Vec4f.cs"
"Assets/OpenCVForUnity/org/opencv/unity/Vec/Vec4i.cs"
"Assets/OpenCVForUnity/org/opencv/unity/Vec/Vec4s.cs"
"Assets/OpenCVForUnity/org/opencv/unity/Vec/Vec4w.cs"
"Assets/OpenCVForUnity/org/opencv/unity/Vec/Vec5d.cs"
"Assets/OpenCVForUnity/org/opencv/unity/Vec/Vec5f.cs"
"Assets/OpenCVForUnity/org/opencv/unity/Vec/Vec6f.cs"
"Assets/OpenCVForUnity/org/opencv/unity/Vec/Vec7d.cs"
"Assets/OpenCVForUnity/org/opencv/unity/Vec/Vec7f.cs"
"Assets/OpenCVForUnity/org/opencv/utils/Converters.cs"
"Assets/OpenCVForUnity/org/opencv/utils/DnnConverters.cs"
"Assets/OpenCVForUnity/org/opencv/utils/MatIndexer.cs"
"Assets/OpenCVForUnity/org/opencv/utils/MatUtils.cs"
"Assets/OpenCVForUnity/org/opencv/video/BackgroundSubtractor.cs"
"Assets/OpenCVForUnity/org/opencv/video/BackgroundSubtractorKNN.cs"
"Assets/OpenCVForUnity/org/opencv/video/BackgroundSubtractorMOG2.cs"
"Assets/OpenCVForUnity/org/opencv/video/DenseOpticalFlow.cs"
"Assets/OpenCVForUnity/org/opencv/video/DISOpticalFlow.cs"
"Assets/OpenCVForUnity/org/opencv/video/FarnebackOpticalFlow.cs"
"Assets/OpenCVForUnity/org/opencv/video/KalmanFilter.cs"
"Assets/OpenCVForUnity/org/opencv/video/SparseOpticalFlow.cs"
"Assets/OpenCVForUnity/org/opencv/video/SparsePyrLKOpticalFlow.cs"
"Assets/OpenCVForUnity/org/opencv/video/SparsePyrLKOpticalFlow_Struct.cs"
"Assets/OpenCVForUnity/org/opencv/video/SparsePyrLKOpticalFlow_ValueTuple.cs"
"Assets/OpenCVForUnity/org/opencv/video/Tracker.cs"
"Assets/OpenCVForUnity/org/opencv/video/TrackerDaSiamRPN.cs"
"Assets/OpenCVForUnity/org/opencv/video/TrackerDaSiamRPN_Params.cs"
"Assets/OpenCVForUnity/org/opencv/video/TrackerGOTURN.cs"
"Assets/OpenCVForUnity/org/opencv/video/TrackerGOTURN_Params.cs"
"Assets/OpenCVForUnity/org/opencv/video/TrackerMIL.cs"
"Assets/OpenCVForUnity/org/opencv/video/TrackerMIL_Params.cs"
"Assets/OpenCVForUnity/org/opencv/video/TrackerNano.cs"
"Assets/OpenCVForUnity/org/opencv/video/TrackerNano_Params.cs"
"Assets/OpenCVForUnity/org/opencv/video/TrackerVit.cs"
"Assets/OpenCVForUnity/org/opencv/video/TrackerVit_Params.cs"
"Assets/OpenCVForUnity/org/opencv/video/TrackerVit_Params_Struct.cs"
"Assets/OpenCVForUnity/org/opencv/video/TrackerVit_Params_ValueTuple.cs"
"Assets/OpenCVForUnity/org/opencv/video/Tracker_Struct.cs"
"Assets/OpenCVForUnity/org/opencv/video/Tracker_ValueTuple.cs"
"Assets/OpenCVForUnity/org/opencv/video/VariationalRefinement.cs"
"Assets/OpenCVForUnity/org/opencv/video/Video.cs"
"Assets/OpenCVForUnity/org/opencv/video/Video_Struct.cs"
"Assets/OpenCVForUnity/org/opencv/video/Video_ValueTuple.cs"
"Assets/OpenCVForUnity/org/opencv/videoio/VideoCapture.cs"
"Assets/OpenCVForUnity/org/opencv/videoio/Videoio.cs"
"Assets/OpenCVForUnity/org/opencv/videoio/VideoWriter.cs"
"Assets/OpenCVForUnity/org/opencv/videoio/VideoWriter_Struct.cs"
"Assets/OpenCVForUnity/org/opencv/videoio/VideoWriter_ValueTuple.cs"
"Assets/OpenCVForUnity/org/opencv_contrib/aruco/Aruco.cs"
"Assets/OpenCVForUnity/org/opencv_contrib/aruco/Aruco_Struct.cs"
"Assets/OpenCVForUnity/org/opencv_contrib/aruco/Aruco_ValueTuple.cs"
"Assets/OpenCVForUnity/org/opencv_contrib/aruco/EstimateParameters.cs"
"Assets/OpenCVForUnity/org/opencv_contrib/bgsegm/BackgroundSubtractorCNT.cs"
"Assets/OpenCVForUnity/org/opencv_contrib/bgsegm/BackgroundSubtractorGMG.cs"
"Assets/OpenCVForUnity/org/opencv_contrib/bgsegm/BackgroundSubtractorGSOC.cs"
"Assets/OpenCVForUnity/org/opencv_contrib/bgsegm/BackgroundSubtractorLSBP.cs"
"Assets/OpenCVForUnity/org/opencv_contrib/bgsegm/BackgroundSubtractorLSBPDesc.cs"
"Assets/OpenCVForUnity/org/opencv_contrib/bgsegm/BackgroundSubtractorMOG.cs"
"Assets/OpenCVForUnity/org/opencv_contrib/bgsegm/Bgsegm.cs"
"Assets/OpenCVForUnity/org/opencv_contrib/bgsegm/SyntheticSequenceGenerator.cs"
"Assets/OpenCVForUnity/org/opencv_contrib/bioinspired/Bioinspired.cs"
"Assets/OpenCVForUnity/org/opencv_contrib/bioinspired/Retina.cs"
"Assets/OpenCVForUnity/org/opencv_contrib/bioinspired/RetinaFastToneMapping.cs"
"Assets/OpenCVForUnity/org/opencv_contrib/bioinspired/RetinaFastToneMapping_Struct.cs"
"Assets/OpenCVForUnity/org/opencv_contrib/bioinspired/RetinaFastToneMapping_ValueTuple.cs"
"Assets/OpenCVForUnity/org/opencv_contrib/bioinspired/Retina_Struct.cs"
"Assets/OpenCVForUnity/org/opencv_contrib/bioinspired/Retina_ValueTuple.cs"
"Assets/OpenCVForUnity/org/opencv_contrib/bioinspired/TransientAreasSegmentationModule.cs"
"Assets/OpenCVForUnity/org/opencv_contrib/bioinspired/TransientAreasSegmentationModule_Struct.cs"
"Assets/OpenCVForUnity/org/opencv_contrib/bioinspired/TransientAreasSegmentationModule_ValueTuple.cs"
"Assets/OpenCVForUnity/org/opencv_contrib/dnn_superres/DnnSuperResImpl.cs"
"Assets/OpenCVForUnity/org/opencv_contrib/dnn_superres/Dnn_superres.cs"
"Assets/OpenCVForUnity/org/opencv_contrib/face/BasicFaceRecognizer.cs"
"Assets/OpenCVForUnity/org/opencv_contrib/face/BIF.cs"
"Assets/OpenCVForUnity/org/opencv_contrib/face/EigenFaceRecognizer.cs"
"Assets/OpenCVForUnity/org/opencv_contrib/face/Face.cs"
"Assets/OpenCVForUnity/org/opencv_contrib/face/Facemark.cs"
"Assets/OpenCVForUnity/org/opencv_contrib/face/FacemarkAAM.cs"
"Assets/OpenCVForUnity/org/opencv_contrib/face/FacemarkKazemi.cs"
"Assets/OpenCVForUnity/org/opencv_contrib/face/FacemarkLBF.cs"
"Assets/OpenCVForUnity/org/opencv_contrib/face/FacemarkTrain.cs"
"Assets/OpenCVForUnity/org/opencv_contrib/face/FaceRecognizer.cs"
"Assets/OpenCVForUnity/org/opencv_contrib/face/Face_Struct.cs"
"Assets/OpenCVForUnity/org/opencv_contrib/face/Face_ValueTuple.cs"
"Assets/OpenCVForUnity/org/opencv_contrib/face/FisherFaceRecognizer.cs"
"Assets/OpenCVForUnity/org/opencv_contrib/face/LBPHFaceRecognizer.cs"
"Assets/OpenCVForUnity/org/opencv_contrib/face/MACE.cs"
"Assets/OpenCVForUnity/org/opencv_contrib/face/PredictCollector.cs"
"Assets/OpenCVForUnity/org/opencv_contrib/face/StandardCollector.cs"
"Assets/OpenCVForUnity/org/opencv_contrib/img_hash/AverageHash.cs"
"Assets/OpenCVForUnity/org/opencv_contrib/img_hash/BlockMeanHash.cs"
"Assets/OpenCVForUnity/org/opencv_contrib/img_hash/ColorMomentHash.cs"
"Assets/OpenCVForUnity/org/opencv_contrib/img_hash/ImgHashBase.cs"
"Assets/OpenCVForUnity/org/opencv_contrib/img_hash/Img_hash.cs"
"Assets/OpenCVForUnity/org/opencv_contrib/img_hash/MarrHildrethHash.cs"
"Assets/OpenCVForUnity/org/opencv_contrib/img_hash/PHash.cs"
"Assets/OpenCVForUnity/org/opencv_contrib/img_hash/RadialVarianceHash.cs"
"Assets/OpenCVForUnity/org/opencv_contrib/phase_unwrapping/HistogramPhaseUnwrapping.cs"
"Assets/OpenCVForUnity/org/opencv_contrib/phase_unwrapping/HistogramPhaseUnwrapping_Params.cs"
"Assets/OpenCVForUnity/org/opencv_contrib/phase_unwrapping/PhaseUnwrapping.cs"
"Assets/OpenCVForUnity/org/opencv_contrib/phase_unwrapping/Phase_unwrapping.cs"
"Assets/OpenCVForUnity/org/opencv_contrib/plot/Plot.cs"
"Assets/OpenCVForUnity/org/opencv_contrib/plot/Plot2d.cs"
"Assets/OpenCVForUnity/org/opencv_contrib/plot/Plot2d_Struct.cs"
"Assets/OpenCVForUnity/org/opencv_contrib/plot/Plot2d_ValueTuple.cs"
"Assets/OpenCVForUnity/org/opencv_contrib/structured_light/GrayCodePattern.cs"
"Assets/OpenCVForUnity/org/opencv_contrib/structured_light/GrayCodePattern_Struct.cs"
"Assets/OpenCVForUnity/org/opencv_contrib/structured_light/GrayCodePattern_ValueTuple.cs"
"Assets/OpenCVForUnity/org/opencv_contrib/structured_light/SinusoidalPattern.cs"
"Assets/OpenCVForUnity/org/opencv_contrib/structured_light/SinusoidalPattern_Params.cs"
"Assets/OpenCVForUnity/org/opencv_contrib/structured_light/SinusoidalPattern_Struct.cs"
"Assets/OpenCVForUnity/org/opencv_contrib/structured_light/SinusoidalPattern_ValueTuple.cs"
"Assets/OpenCVForUnity/org/opencv_contrib/structured_light/StructuredLightPattern.cs"
"Assets/OpenCVForUnity/org/opencv_contrib/structured_light/Structured_light.cs"
"Assets/OpenCVForUnity/org/opencv_contrib/text/BaseOCR.cs"
"Assets/OpenCVForUnity/org/opencv_contrib/text/ERFilter.cs"
"Assets/OpenCVForUnity/org/opencv_contrib/text/ERFilter_Callback.cs"
"Assets/OpenCVForUnity/org/opencv_contrib/text/OCRBeamSearchDecoder.cs"
"Assets/OpenCVForUnity/org/opencv_contrib/text/OCRBeamSearchDecoder_ClassifierCallback.cs"
"Assets/OpenCVForUnity/org/opencv_contrib/text/OCRHMMDecoder.cs"
"Assets/OpenCVForUnity/org/opencv_contrib/text/OCRHMMDecoder_ClassifierCallback.cs"
"Assets/OpenCVForUnity/org/opencv_contrib/text/OCRTesseract.cs"
"Assets/OpenCVForUnity/org/opencv_contrib/text/Text.cs"
"Assets/OpenCVForUnity/org/opencv_contrib/text/TextDetector.cs"
"Assets/OpenCVForUnity/org/opencv_contrib/text/TextDetectorCNN.cs"
"Assets/OpenCVForUnity/org/opencv_contrib/tracking/legacy_MultiTracker.cs"
"Assets/OpenCVForUnity/org/opencv_contrib/tracking/legacy_MultiTracker_Struct.cs"
"Assets/OpenCVForUnity/org/opencv_contrib/tracking/legacy_MultiTracker_ValueTuple.cs"
"Assets/OpenCVForUnity/org/opencv_contrib/tracking/legacy_Tracker.cs"
"Assets/OpenCVForUnity/org/opencv_contrib/tracking/legacy_TrackerBoosting.cs"
"Assets/OpenCVForUnity/org/opencv_contrib/tracking/legacy_TrackerCSRT.cs"
"Assets/OpenCVForUnity/org/opencv_contrib/tracking/legacy_TrackerKCF.cs"
"Assets/OpenCVForUnity/org/opencv_contrib/tracking/legacy_TrackerMedianFlow.cs"
"Assets/OpenCVForUnity/org/opencv_contrib/tracking/legacy_TrackerMIL.cs"
"Assets/OpenCVForUnity/org/opencv_contrib/tracking/legacy_TrackerMOSSE.cs"
"Assets/OpenCVForUnity/org/opencv_contrib/tracking/legacy_TrackerTLD.cs"
"Assets/OpenCVForUnity/org/opencv_contrib/tracking/legacy_Tracker_Struct.cs"
"Assets/OpenCVForUnity/org/opencv_contrib/tracking/legacy_Tracker_ValueTuple.cs"
"Assets/OpenCVForUnity/org/opencv_contrib/tracking/TrackerCSRT.cs"
"Assets/OpenCVForUnity/org/opencv_contrib/tracking/TrackerCSRT_Params.cs"
"Assets/OpenCVForUnity/org/opencv_contrib/tracking/TrackerKCF.cs"
"Assets/OpenCVForUnity/org/opencv_contrib/tracking/TrackerKCF_Params.cs"
"Assets/OpenCVForUnity/org/opencv_contrib/tracking/Tracking.cs"
"Assets/OpenCVForUnity/org/opencv_contrib/wechat_qrcode/WeChatQRCode.cs"
"Assets/OpenCVForUnity/org/opencv_contrib/wechat_qrcode/Wechat_qrcode.cs"
"Assets/OpenCVForUnity/org/opencv_contrib/xfeatures2d/AffineFeature2D.cs"
"Assets/OpenCVForUnity/org/opencv_contrib/xfeatures2d/BEBLID.cs"
"Assets/OpenCVForUnity/org/opencv_contrib/xfeatures2d/BoostDesc.cs"
"Assets/OpenCVForUnity/org/opencv_contrib/xfeatures2d/BriefDescriptorExtractor.cs"
"Assets/OpenCVForUnity/org/opencv_contrib/xfeatures2d/DAISY.cs"
"Assets/OpenCVForUnity/org/opencv_contrib/xfeatures2d/FREAK.cs"
"Assets/OpenCVForUnity/org/opencv_contrib/xfeatures2d/HarrisLaplaceFeatureDetector.cs"
"Assets/OpenCVForUnity/org/opencv_contrib/xfeatures2d/LATCH.cs"
"Assets/OpenCVForUnity/org/opencv_contrib/xfeatures2d/LUCID.cs"
"Assets/OpenCVForUnity/org/opencv_contrib/xfeatures2d/MSDDetector.cs"
"Assets/OpenCVForUnity/org/opencv_contrib/xfeatures2d/PCTSignatures.cs"
"Assets/OpenCVForUnity/org/opencv_contrib/xfeatures2d/PCTSignaturesSQFD.cs"
"Assets/OpenCVForUnity/org/opencv_contrib/xfeatures2d/StarDetector.cs"
"Assets/OpenCVForUnity/org/opencv_contrib/xfeatures2d/SURF.cs"
"Assets/OpenCVForUnity/org/opencv_contrib/xfeatures2d/SURF_CUDA.cs"
"Assets/OpenCVForUnity/org/opencv_contrib/xfeatures2d/TBMR.cs"
"Assets/OpenCVForUnity/org/opencv_contrib/xfeatures2d/TEBLID.cs"
"Assets/OpenCVForUnity/org/opencv_contrib/xfeatures2d/VGG.cs"
"Assets/OpenCVForUnity/org/opencv_contrib/xfeatures2d/Xfeatures2d.cs"
"Assets/OpenCVForUnity/org/opencv_contrib/xfeatures2d/Xfeatures2d_Struct.cs"
"Assets/OpenCVForUnity/org/opencv_contrib/xfeatures2d/Xfeatures2d_ValueTuple.cs"
"Assets/OpenCVForUnity/org/opencv_contrib/ximgproc/AdaptiveManifoldFilter.cs"
"Assets/OpenCVForUnity/org/opencv_contrib/ximgproc/ContourFitting.cs"
"Assets/OpenCVForUnity/org/opencv_contrib/ximgproc/DisparityFilter.cs"
"Assets/OpenCVForUnity/org/opencv_contrib/ximgproc/DisparityFilter_Struct.cs"
"Assets/OpenCVForUnity/org/opencv_contrib/ximgproc/DisparityFilter_ValueTuple.cs"
"Assets/OpenCVForUnity/org/opencv_contrib/ximgproc/DisparityWLSFilter.cs"
"Assets/OpenCVForUnity/org/opencv_contrib/ximgproc/DisparityWLSFilter_Struct.cs"
"Assets/OpenCVForUnity/org/opencv_contrib/ximgproc/DisparityWLSFilter_ValueTuple.cs"
"Assets/OpenCVForUnity/org/opencv_contrib/ximgproc/DTFilter.cs"
"Assets/OpenCVForUnity/org/opencv_contrib/ximgproc/EdgeAwareInterpolator.cs"
"Assets/OpenCVForUnity/org/opencv_contrib/ximgproc/EdgeBoxes.cs"
"Assets/OpenCVForUnity/org/opencv_contrib/ximgproc/EdgeDrawing.cs"
"Assets/OpenCVForUnity/org/opencv_contrib/ximgproc/EdgeDrawing_Params.cs"
"Assets/OpenCVForUnity/org/opencv_contrib/ximgproc/FastBilateralSolverFilter.cs"
"Assets/OpenCVForUnity/org/opencv_contrib/ximgproc/FastGlobalSmootherFilter.cs"
"Assets/OpenCVForUnity/org/opencv_contrib/ximgproc/FastLineDetector.cs"
"Assets/OpenCVForUnity/org/opencv_contrib/ximgproc/FastLineDetector_Struct.cs"
"Assets/OpenCVForUnity/org/opencv_contrib/ximgproc/FastLineDetector_ValueTuple.cs"
"Assets/OpenCVForUnity/org/opencv_contrib/ximgproc/GraphSegmentation.cs"
"Assets/OpenCVForUnity/org/opencv_contrib/ximgproc/GuidedFilter.cs"
"Assets/OpenCVForUnity/org/opencv_contrib/ximgproc/RFFeatureGetter.cs"
"Assets/OpenCVForUnity/org/opencv_contrib/ximgproc/RICInterpolator.cs"
"Assets/OpenCVForUnity/org/opencv_contrib/ximgproc/RidgeDetectionFilter.cs"
"Assets/OpenCVForUnity/org/opencv_contrib/ximgproc/ScanSegment.cs"
"Assets/OpenCVForUnity/org/opencv_contrib/ximgproc/SelectiveSearchSegmentation.cs"
"Assets/OpenCVForUnity/org/opencv_contrib/ximgproc/SelectiveSearchSegmentationStrategy.cs"
"Assets/OpenCVForUnity/org/opencv_contrib/ximgproc/SelectiveSearchSegmentationStrategyColor.cs"
"Assets/OpenCVForUnity/org/opencv_contrib/ximgproc/SelectiveSearchSegmentationStrategyFill.cs"
"Assets/OpenCVForUnity/org/opencv_contrib/ximgproc/SelectiveSearchSegmentationStrategyMultiple.cs"
"Assets/OpenCVForUnity/org/opencv_contrib/ximgproc/SelectiveSearchSegmentationStrategySize.cs"
"Assets/OpenCVForUnity/org/opencv_contrib/ximgproc/SelectiveSearchSegmentationStrategyTexture.cs"
"Assets/OpenCVForUnity/org/opencv_contrib/ximgproc/SparseMatchInterpolator.cs"
"Assets/OpenCVForUnity/org/opencv_contrib/ximgproc/StructuredEdgeDetection.cs"
"Assets/OpenCVForUnity/org/opencv_contrib/ximgproc/SuperpixelLSC.cs"
"Assets/OpenCVForUnity/org/opencv_contrib/ximgproc/SuperpixelSEEDS.cs"
"Assets/OpenCVForUnity/org/opencv_contrib/ximgproc/SuperpixelSLIC.cs"
"Assets/OpenCVForUnity/org/opencv_contrib/ximgproc/Ximgproc.cs"
"Assets/OpenCVForUnity/org/opencv_contrib/ximgproc/Ximgproc_Struct.cs"
"Assets/OpenCVForUnity/org/opencv_contrib/ximgproc/Ximgproc_ValueTuple.cs"
"Assets/OpenCVForUnity/org/opencv_contrib/xphoto/GrayworldWB.cs"
"Assets/OpenCVForUnity/org/opencv_contrib/xphoto/LearningBasedWB.cs"
"Assets/OpenCVForUnity/org/opencv_contrib/xphoto/SimpleWB.cs"
"Assets/OpenCVForUnity/org/opencv_contrib/xphoto/TonemapDurand.cs"
"Assets/OpenCVForUnity/org/opencv_contrib/xphoto/WhiteBalancer.cs"
"Assets/OpenCVForUnity/org/opencv_contrib/xphoto/Xphoto.cs"
-langversion:9.0
/unsafe+
/deterministic
/optimize+
/debug:portable
/nologo
/RuntimeMetadataVersion:v4.0.30319

/nowarn:0169
/nowarn:0649
/nowarn:1701
/nowarn:1702
/utf8output
/preferreduilang:en-US


/additionalfile:"Library/Bee/artifacts/2000b0aE.dag/EnoxSoftware.OpenCVForUnity.AdditionalFile.txt"