%YAML 1.1
%TAG !u! tag:unity3d.com,2011:
--- !u!1045 &1
EditorBuildSettings:
  m_ObjectHideFlags: 0
  serializedVersion: 2
  m_Scenes:
  - enabled: 0
    path: Assets/Scenes/OpenForAll.unity
    guid: 6be0ddb04722f4b2d80e0141f26a8984
  - enabled: 1
    path: Assets/Scenes/Open.unity
    guid: 4a202b1c39c0f9240ae3f56a7f5bb8ce
  - enabled: 1
    path: Assets/Scenes/Main.unity
    guid: ee2702a3fbd2143d5a31541982fe2185
  m_configObjects: {}
