{
    "lines": [
        [
            [
                3.5, 
                3.0, 
                0.0
            ], 
            [
                3.5, 
                1.95, 
                0.0
            ]
        ], 
        [
            [
                3.5, 
                0.76700000000000013, 
                0.40000000000000002
            ], 
            [
                3.5, 
                0.76700000000000002, 
                -0.40000000000000002
            ]
        ], 
        [
            [
                3.5, 
                1.7000000000000002, 
                0.40000000000000002
            ], 
            [
                3.5, 
                1.7000000000000002, 
                -0.40000000000000002
            ]
        ], 
        [
            [
                3.5, 
                0.76700000000000013, 
                0.40000000000000002
            ], 
            [
                3.5, 
                1.1102230246251565e-16, 
                0.40000000000000002
            ]
        ], 
        [
            [
                3.5, 
                1.7000000000000002, 
                0.40000000000000002
            ], 
            [
                3.5, 
                0.76700000000000013, 
                0.40000000000000002
            ]
        ], 
        [
            [
                3.5, 
                2.6000000000000001, 
                0.40000000000000002
            ], 
            [
                3.5, 
                1.7000000000000002, 
                0.40000000000000002
            ]
        ], 
        [
            [
                3.5, 
                2.6000000000000001, 
                -0.40000000000000002
            ], 
            [
                3.5, 
                2.6000000000000001, 
                0.40000000000000002
            ]
        ], 
        [
            [
                3.5, 
                0.0, 
                -0.40000000000000002
            ], 
            [
                3.5, 
                0.0, 
                0.40000000000000002
            ]
        ], 
        [
            [
                3.5, 
                -0.29999999999999999, 
                0.0
            ], 
            [
                3.5, 
                0.29999999999999999, 
                0.0
            ]
        ], 
        [
            [
                3.5, 
                0.29999999999999999, 
                0.0
            ], 
            [
                3.5, 
                0.29999999999999999, 
                -0.40000000000000002
            ]
        ]
    ]
}